0	0	0	0	0	0	0	0	0	0	0	0	0	0	7993	24707	26641	33242

2	0	2	1542	0	0	1	829	785	298	297	295	293	0	7993	24713	26641	33248

5	0	62	1553	0	0	1	1056	1054	298	297	295	293	0	7980	24703	26641	33207

8	0	117	1522	0	0	1	1085	1078	298	297	295	293	0	7989	24696	26615	33209

11	0	257	1394	0	0	1	1121	1115	298	297	295	293	0	7975	24696	26615	33183

13	0	398	1237	0	0	1	1136	1132	298	297	295	293	0	7975	24696	26615	33183

16	25	422	982	0	0	1	1115	1116	298	297	295	293	0	7981	24699	26627	33154

19	32	484	775	0	0	1	1151	1152	298	297	295	293	0	7970	24699	26627	33160

21	42	511	706	0	0	1	1139	1143	298	297	295	293	0	7970	24699	26627	33160

24	47	481	655	0	0	1	1116	1117	298	297	295	293	0	7962	24711	26627	33126

27	53	504	654	0	0	1	1141	1138	298	297	295	293	0	7965	24689	26627	33143

30	62	546	653	0	0	1	1158	1158	305	305	302	301	0	7957	24689	26627	33110

33	72	578	838	0	0	1	1167	1164	305	305	302	301	0	7966	24712	26594	33087

36	80	588	1142	0	0	1	1165	1161	305	305	302	301	0	7966	24712	26594	33087

39	88	565	1513	0	0	1	1142	1143	305	305	302	301	1	7949	24714	26594	33067

41	91	542	1909	0	0	1	1141	1142	305	305	302	301	1	7950	24699	26558	33017

44	98	507	2080	0	0	1	1120	1116	305	305	302	301	0	7956	24707	26521	33091

47	102	453	2117	0	0	1	1105	1093	305	305	302	301	1	7934	24720	26636	32988

49	105	387	2097	0	0	1	1077	1074	310	311	306	308	1	7934	24720	26636	32988

52	107	348	2096	0	0	1	1076	1073	310	311	306	308	0	7950	24720	26636	33073

55	109	307	2117	0	0	1	1067	1066	310	311	306	308	0	7947	24720	26636	33054

58	110	282	2092	0	0	1	1065	1065	310	311	306	308	0	7947	24720	26636	33054

60	110	222	2166	0	0	1	1059	1055	310	311	306	308	0	7948	24735	26636	33081

63	108	0	2217	0	0	1	0	0	310	311	306	308	0	7953	24735	26636	33083

66	102	98	2173	0	0	1	604	657	310	311	306	308	0	7976	24735	26636	33174

68	104	167	2146	0	0	1	1038	1040	310	311	306	308	0	7962	24735	26636	33135

71	105	214	2147	0	0	1	1073	1070	314	315	309	311	0	7962	24735	26636	33135

74	103	0	2186	0	0	1	0	0	314	315	309	311	0	7952	24735	26636	33076

77	99	0	2177	0	0	1	0	0	314	315	309	311	0	7976	24735	26636	33185

79	94	56	2203	0	0	1	747	883	314	315	309	311	0	7976	24735	26636	33185

82	93	102	2220	0	0	1	1034	1033	314	315	309	311	0	7995	24731	26610	33155

85	97	173	2367	0	0	1	1067	1065	314	315	309	311	0	7956	24731	26610	33112

88	96	167	2492	0	0	1	1058	1056	314	315	309	311	0	7956	24731	26610	33095

91	99	186	2535	0	0	1	1068	1067	314	315	310	312	0	7953	24722	26610	33100

94	95	0	2626	0	0	1	0	0	314	315	310	312	0	7953	24722	26610	33100

96	92	136	2644	0	0	1	931	964	314	315	310	312	0	7976	24722	26610	33158

99	94	191	2644	0	0	1	1058	1057	314	315	310	312	0	7963	24722	26610	33136

102	95	217	2635	0	0	1	1069	1066	314	315	310	312	0	7942	24722	26610	33041

105	98	206	2672	0	0	1	1059	1060	314	315	310	312	0	7963	24720	26641	33063

107	94	183	2851	0	0	1	1056	1053	314	315	310	312	0	7963	24720	26641	33063

110	95	105	2856	0	0	1	349	415	314	316	311	312	0	7953	24720	26641	33069

113	89	117	2954	0	0	1	964	973	314	316	311	312	0	7988	24711	26624	33153

115	87	76	2976	0	0	1	28	505	314	316	311	312	0	7977	24709	26624	33164

118	80	0	2969	0	0	1	0	0	314	316	311	312	0	7975	24695	26582	33143

121	74	104	2940	0	0	1	935	931	314	316	311	312	0	7975	24695	26582	33143

124	71	142	2942	0	0	1	454	570	314	316	311	312	0	7949	24702	26504	33061

126	73	272	2915	0	0	1	1046	1080	314	316	311	312	0	7980	24723	26652	33162

129	82	377	2896	0	0	1	1116	1120	315	317	312	314	0	7980	24723	26652	33162

132	86	405	2825	0	0	1	1109	1110	315	317	312	314	0	7936	24723	26652	33011

134	88	0	2734	0	0	1	0	0	315	317	312	314	0	7949	24712	26674	33027

138	85	0	2622	0	0	1	0	0	315	317	312	314	0	7962	24683	26674	33135

141	81	114	2580	0	0	1	769	772	315	317	312	314	0	7980	24687	26627	33152

143	83	0	2455	0	0	1	0	0	315	317	312	314	0	7980	24687	26627	33152

146	80	132	2330	0	0	1	1007	988	315	317	312	314	0	7972	24687	26627	33163

149	81	100	2355	0	0	1	343	54	315	317	312	314	0	7968	24682	26603	33116

151	80	0	2376	0	0	1	251	0	317	318	314	314	0	7970	24709	26603	33135

154	77	47	2375	0	0	1	924	795	317	318	314	314	0	7977	24707	26615	33144

157	80	0	2364	0	0	1	0	128	317	318	314	314	0	7977	24707	26615	33144

160	79	0	2366	0	0	1	0	0	317	318	314	314	0	7976	24716	26615	33162

162	78	0	2373	0	0	1	0	0	317	318	314	314	0	7988	24716	26627	33179

165	82	7	2283	0	0	1	275	129	317	318	314	314	0	7988	24716	26627	33179

168	81	0	2201	0	0	1	0	0	317	318	314	314	0	7973	24716	26627	33167

171	83	0	2189	0	0	1	0	0	317	318	314	314	0	7988	24727	26667	33169

173	85	0	2039	0	0	1	0	0	317	318	314	314	0	7976	24727	26667	33168

176	88	0	1863	0	0	1	0	0	317	318	314	314	0	7982	24718	26650	33172

179	91	0	1776	0	0	1	0	0	317	318	314	314	0	7982	24718	26650	33172

182	91	0	1910	0	0	1	0	458	317	318	314	314	0	7965	24718	26650	33135

184	93	0	2338	0	0	1	508	0	317	318	314	314	0	7964	24720	26685	33126

187	98	0	2826	0	0	1	0	0	317	318	314	314	0	7964	24720	26685	33126

190	99	1	3160	0	0	1	782	741	317	318	314	314	0	7976	24731	26685	33171

193	104	125	3288	0	0	1	1035	1051	317	318	314	314	0	7976	24731	26685	33171

196	114	235	3303	0	0	1	1088	1088	317	318	314	314	0	7956	24731	26685	33096

198	116	0	3296	0	0	1	0	0	317	318	314	314	0	7939	24731	26685	33024

201	114	97	3215	0	0	1	809	351	317	318	314	314	0	7939	24731	26685	33024

204	117	185	2885	0	0	1	1083	1000	317	318	314	314	0	7967	24720	26610	33144

207	115	136	2833	0	0	1	27	508	317	318	314	314	0	7957	24720	26610	33112

209	112	196	2730	0	0	1	1016	1001	317	318	312	314	0	7971	24726	26650	33122

212	108	0	2694	0	0	1	0	0	317	318	312	314	1	7923	24726	26650	32919

215	107	96	2664	0	0	1	880	276	317	318	312	314	1	7923	24726	26650	32919

218	105	147	2591	0	0	1	1065	966	317	318	312	314	0	7966	24732	26650	33146

220	110	263	2518	0	0	1	1094	1086	317	318	312	314	0	7933	24732	26650	33004

223	110	0	2521	0	0	1	0	0	317	318	312	314	0	7933	24732	26650	33004

226	108	0	2556	0	0	1	0	263	317	318	312	314	1	7917	24732	26650	32911

228	103	66	2571	0	0	1	0	945	317	318	312	314	0	7970	24740	26645	33142

231	99	78	2539	0	0	1	265	158	317	318	312	314	0	7968	24740	26645	33133

234	96	0	2539	0	0	1	0	0	317	318	312	314	0	7958	24740	26645	33118

237	89	38	2527	0	0	1	620	643	317	318	312	314	0	7958	24740	26645	33118

239	88	39	2520	0	0	1	990	0	317	318	312	314	0	7958	24740	26645	33110

243	79	49	2445	0	0	1	871	853	317	318	312	314	0	7947	24744	26645	33045

245	81	57	2391	0	0	1	1035	0	317	318	312	314	0	7993	24742	26655	33108

248	80	0	2390	0	0	1	0	0	317	318	312	314	0	7959	24742	26655	33108

251	73	0	2346	0	0	1	0	0	317	318	313	314	0	7959	24742	26655	33108

254	69	44	2299	0	0	1	795	818	317	318	313	314	0	7970	24731	26655	33143

256	69	108	2265	0	0	1	1039	1041	317	318	313	314	0	7958	24740	26655	33110

259	68	132	2240	0	0	1	1055	1054	317	318	313	314	0	7958	24740	26655	33110

262	71	146	2211	0	0	1	1057	1060	317	318	313	314	0	7949	24740	26655	33052

264	71	143	2177	0	0	1	1057	1055	317	318	313	314	0	7953	24749	26655	33074

267	70	141	2174	0	0	1	1057	1056	317	318	313	314	0	7960	24731	26641	33091

270	71	135	2172	0	0	1	1056	1053	318	320	314	315	0	7949	24731	26641	33082

273	71	127	2163	0	0	1	1053	1052	318	320	314	315	0	7949	24731	26641	33082

275	63	0	2151	0	0	1	0	0	318	320	314	315	0	7954	24731	26641	33063

278	32	0	2143	0	0	1	0	0	318	320	314	315	0	7966	24732	26641	33148

281	0	0	2180	0	0	1	0	0	318	320	314	315	0	7969	24721	26594	33158

284	0	0	2175	0	0	1	0	0	318	320	314	315	0	7971	24721	26594	33165

286	0	0	2174	0	0	1	0	0	318	320	314	315	0	7971	24721	26594	33165

289	0	0	2176	0	0	1	0	0	318	320	317	318	0	7970	24727	26594	33146

292	0	0	2176	0	0	1	0	0	321	323	317	318	0	7971	24727	26594	33148

295	0	0	2177	0	0	1	0	0	321	323	317	318	0	7971	24724	26594	33148

298	0	0	2176	0	0	1	0	0	321	323	317	318	0	7971	24729	26594	33150

301	0	0	2175	0	0	1	0	0	321	323	317	318	0	7971	24729	26594	33147

303	0	0	2174	0	0	1	0	0	321	323	317	318	0	7972	24729	26594	33153

306	0	0	2176	0	0	1	0	0	321	323	317	318	0	7972	24729	26594	33154

309	0	0	2175	0	0	1	0	0	321	323	317	318	0	7972	24729	26594	33154

312	0	0	2176	0	0	1	0	0	321	321	317	317	0	7973	24727	26594	33160

314	0	0	2172	0	0	1	0	0	321	321	317	317	0	7972	24727	26594	33167

317	0	0	2152	0	0	1	0	0	321	321	317	317	0	7978	24727	26594	33158

320	0	0	2153	0	0	1	0	0	321	321	317	317	0	7973	24730	26594	33157

322	0	0	2146	0	0	1	0	0	321	321	317	317	0	7973	24730	26594	33157

325	0	0	2147	0	0	1	0	0	321	321	317	317	0	7973	24733	26594	33184

328	0	0	2144	0	0	1	0	0	321	321	317	317	0	7986	24733	26650	33164

331	0	0	2145	0	0	1	0	0	321	321	317	317	0	7986	24733	26650	33164

333	0	0	2134	0	0	1	0	0	321	321	317	317	0	7975	24726	26650	33173

336	0	0	2132	0	0	1	0	0	321	321	317	317	0	7987	24723	26610	33168

339	0	0	2139	0	0	1	0	0	321	321	317	317	0	7975	24723	26610	33184

341	0	0	2140	0	0	1	0	0	321	321	317	317	0	7976	24731	26636	33174

344	0	0	2141	0	0	1	0	0	321	321	317	317	0	7976	24731	26636	33174

348	0	0	2139	0	0	1	0	0	321	321	317	317	0	7975	24731	26636	33168

350	0	0	2137	0	0	1	0	0	321	321	317	317	0	7976	24731	26636	33169

353	0	0	2140	0	0	1	0	0	321	321	317	317	0	7975	24731	26636	33180

356	0	0	2142	0	0	1	0	0	321	321	317	317	0	7975	24734	26636	33170

358	0	0	2141	0	0	1	0	0	321	321	317	317	0	7975	24734	26636	33170

361	0	0	2137	0	0	1	0	0	321	321	317	317	0	7976	24711	26551	33188

364	0	0	2141	0	0	1	0	0	321	321	317	317	0	7976	24691	26551	33195

367	0	0	2135	0	0	1	0	0	321	321	317	317	0	7976	24691	26551	33195

369	0	0	2136	0	0	1	0	0	321	321	317	317	0	8012	24714	26638	33169

372	0	0	2133	0	0	1	0	0	321	321	317	317	0	7976	24714	26638	33174

375	0	0	2131	0	0	1	0	0	321	321	317	317	0	7977	24714	26638	33166

378	0	0	2134	0	0	1	0	0	321	321	317	317	0	7977	24714	26638	33196

380	0	0	2127	0	0	1	0	0	321	321	317	317	0	7977	24714	26638	33196

383	0	0	2119	0	0	1	0	0	321	321	317	317	0	7980	24714	26638	33180

386	0	0	2116	0	0	1	0	0	321	321	317	317	0	7976	24717	26638	33181

388	0	0	2120	0	0	1	0	0	321	321	317	317	0	7976	24717	26638	33181

391	0	0	2124	0	0	1	0	0	321	321	317	317	0	7976	24718	26638	33193

394	0	0	2127	0	0	1	0	0	321	321	317	317	0	7993	24718	26612	33196

397	0	0	2121	0	0	1	0	0	321	321	317	317	0	7986	24716	26615	33180

400	0	0	2130	0	0	1	0	0	321	321	317	317	0	7978	24715	26615	33174

403	0	0	2140	0	0	1	0	0	321	321	317	317	0	7978	24715	26615	33174

405	0	0	2162	0	0	1	0	0	321	321	317	317	0	7977	24714	26615	33194

408	0	0	2159	0	0	1	0	0	321	321	317	317	0	7977	24714	26615	33196

411	0	0	2147	0	0	1	0	0	321	321	317	317	0	7977	24715	26615	33200

414	0	0	2163	0	0	1	0	0	321	321	317	317	0	7978	24712	26615	33178

416	0	0	2157	0	0	1	0	0	321	321	317	317	0	7978	24712	26615	33178

419	0	0	2158	0	0	1	0	0	321	321	317	317	0	8006	24722	26641	33192

422	0	0	2156	0	0	1	0	0	321	321	317	317	0	7978	24722	26641	33173

425	0	0	2153	0	0	1	0	0	321	321	317	317	0	7982	24721	26641	33173

427	0	0	2149	0	0	1	0	0	321	321	317	317	0	7978	24719	26641	33173

430	0	0	2155	0	0	1	0	0	321	321	317	317	0	7978	24719	26641	33172

433	0	0	2150	0	0	1	0	0	321	321	317	317	0	7981	24719	26641	33199

435	0	0	2147	0	0	1	0	0	321	321	317	317	0	7980	24731	26641	33167

438	0	0	2149	0	0	1	0	0	321	321	317	317	0	7980	24731	26641	33167

441	0	0	2145	0	0	1	0	0	321	321	317	317	0	7978	24722	26598	33197

444	0	0	2144	0	0	1	0	0	321	321	317	317	0	7978	24720	26598	33209

446	0	0	2146	0	0	1	0	0	321	321	317	317	0	8006	24718	26641	33182

449	0	0	2147	0	0	1	0	0	321	321	317	317	0	7979	24718	26641	33187

452	0	0	2146	0	0	1	0	0	321	321	317	317	0	7979	24718	26641	33187

455	0	0	2146	0	0	1	0	0	321	321	317	317	0	7981	24718	26641	33187

458	0	0	2146	0	0	1	0	0	321	321	317	317	0	7976	24718	26641	33171

460	0	0	2146	0	0	1	0	0	321	321	317	317	0	7979	24718	26641	33173

463	0	0	2146	0	0	1	0	0	321	321	317	317	0	7977	24718	26641	33177

466	0	0	2147	0	0	1	0	0	321	321	317	317	0	7977	24718	26641	33177

469	0	0	2145	0	0	1	0	0	321	321	317	317	0	7977	24717	26641	33173

471	0	0	2146	0	0	1	0	0	321	321	317	317	0	7980	24711	26596	33200

474	0	0	2146	0	0	1	0	0	321	321	317	317	0	7980	24711	26596	33200

477	0	0	2145	0	0	1	0	0	321	321	317	317	0	7978	24711	26596	33179

480	0	0	2146	0	0	1	0	0	321	321	317	317	0	7978	24711	26596	33191

482	0	0	2147	0	0	1	0	0	321	321	317	317	0	7978	24711	26596	33190

485	0	0	2144	0	0	1	0	0	321	321	317	317	0	7979	24711	26596	33175

488	0	0	2146	0	0	1	0	0	321	321	317	317	0	7979	24711	26596	33175

491	0	0	2146	0	0	1	0	0	321	321	317	317	0	7988	24710	26610	33196

493	0	0	2146	0	0	1	0	0	321	321	317	317	0	7979	24710	26610	33182

496	0	0	2148	0	0	1	0	0	321	321	317	317	0	7979	24710	26610	33182

499	0	0	2145	0	0	1	0	0	321	321	317	317	0	8016	24714	26641	33173

502	0	0	2144	0	0	1	0	0	321	321	317	317	0	7979	24715	26641	33185

505	0	0	2146	0	0	1	0	0	321	321	317	317	0	7984	24712	26641	33202

507	0	0	2148	0	0	1	0	0	321	321	317	317	0	7979	24703	26641	33187

510	0	0	2146	0	0	1	0	0	321	321	317	317	0	7979	24703	26641	33187

513	0	0	2149	0	0	1	0	0	321	321	317	317	0	8004	24704	26652	33211

516	0	0	2149	0	0	1	0	0	321	321	317	317	0	7979	24704	26652	33184

518	0	0	2146	0	0	1	0	0	321	321	317	317	0	7984	24704	26535	33187

521	0	0	2146	0	0	1	0	0	321	321	317	317	0	7987	24703	26589	33205

