0	0	0	2075	0	0	1	0	0	438	437	427	425	0	7967	27243	33094	32990

3	0	9	2073	0	0	1	916	903	438	437	427	425	0	7967	27232	33081	32963

6	0	71	2074	0	0	1	1031	1050	438	437	427	425	0	7967	27232	33081	32963

9	0	24	2075	0	0	1	0	0	438	437	427	425	0	7944	27240	33113	32932

11	0	96	2074	0	0	1	64576	64565	438	437	427	425	0	7955	27235	33113	32981

14	0	204	2069	0	0	1	1072	1087	438	437	427	425	0	7955	27231	33042	32927

17	0	293	2073	0	0	1	1095	1097	438	437	427	425	0	7942	27220	33042	32902

19	0	336	2107	0	0	1	1102	1100	438	437	427	425	0	7942	27220	33042	32902

22	0	373	2088	0	0	1	1107	1106	438	437	427	425	0	7937	27220	33042	32899

25	0	400	2119	0	0	1	1108	1110	438	438	428	427	0	7935	27220	33042	32885

28	34	427	2134	0	0	1	1120	1118	438	438	428	427	0	7935	27220	33042	32885

30	41	473	2153	0	0	1	1136	1135	438	438	428	427	0	7933	27231	33042	32877

33	48	510	2175	0	0	1	1152	1150	438	438	428	427	0	7941	27235	33073	32857

36	57	576	2191	0	0	1	1184	1183	438	438	428	427	0	7922	27235	33073	32837

38	69	637	2183	0	0	1	1211	1212	438	438	428	427	0	7915	27240	33073	32810

42	84	718	2177	0	0	1	1247	1245	438	438	428	427	0	7915	27240	33073	32810

45	100	803	2179	0	0	1	1280	1289	438	438	433	433	1	7902	27249	33073	32770

47	115	875	2140	0	0	1	1326	1325	444	444	433	433	1	7892	27249	33073	32731

50	132	930	2137	0	0	1	1340	1346	444	444	433	433	2	7871	27249	33073	32651

53	151	991	2130	0	0	1	1364	1366	444	444	433	433	2	7860	27249	33073	32600

55	169	1022	2123	0	0	1	1370	1375	444	444	433	433	2	7860	27249	33073	32600

58	191	1060	2139	0	0	1	1419	1407	444	444	433	433	2	7845	27237	33073	32511

61	207	1101	2138	0	0	1	1446	1426	444	444	433	433	3	7818	27239	33073	32444

64	231	1151	2139	0	0	1	1474	1453	444	444	433	433	3	7818	27239	33073	32444

66	253	1206	2135	0	0	1	1484	1476	447	448	437	437	4	7791	27245	33196	32266

69	271	1226	2137	0	0	1	1479	1483	447	448	437	437	4	7770	27252	33196	32243

72	281	1257	2146	0	0	1	1494	1505	447	448	437	437	5	7775	27263	33234	32070

75	310	1267	2155	0	0	1	1496	1501	447	448	437	437	5	7723	27273	33234	31999

77	333	1274	2244	0	0	1	1511	1508	447	448	437	437	5	7723	27273	33234	31999

80	355	1277	2251	0	0	1	1504	1503	447	448	437	437	6	7717	27269	33156	31711

83	370	1287	2290	0	0	1	1512	1504	447	448	437	437	6	7668	27291	33156	31707

86	396	1300	2261	0	0	1	1516	1520	452	453	442	442	6	7668	27291	33156	31707

88	423	1273	2161	0	0	1	1487	1521	452	453	442	442	7	7633	27310	33168	31332

91	419	0	1925	0	0	1	0	0	452	453	442	442	8	7603	27310	33168	31286

94	408	0	1740	0	0	1	0	0	452	453	442	442	0	7877	27310	33168	32629

97	408	0	1631	0	0	1	0	0	452	453	442	442	0	7889	27333	33256	32662

100	404	185	1681	0	0	1	863	830	452	453	442	442	0	7889	27333	33256	32662

102	393	0	1542	0	0	1	0	0	452	453	442	442	0	7877	27333	33256	32669

105	384	0	1596	0	0	1	0	0	457	457	447	446	2	7804	27377	33256	32394

108	374	0	1592	0	0	1	0	0	457	457	447	446	0	7896	27385	33256	32706

111	370	40	1664	0	0	1	713	323	457	457	447	446	0	7912	27401	33343	32721

113	360	186	1544	0	0	1	1082	1065	457	457	447	446	0	7912	27401	33343	32721

116	355	384	1525	0	0	1	1154	1145	457	457	447	446	2	7793	27401	33343	32368

119	354	0	1537	0	0	1	0	0	457	457	447	446	3	7771	27424	33343	32260

122	349	0	1514	0	0	1	0	0	457	457	447	446	3	7771	27424	33343	32260

124	336	0	1385	0	0	1	0	0	457	457	447	446	0	7933	27450	33364	32714

127	342	0	1343	0	0	1	0	0	454	455	443	443	0	7895	27450	33364	32743

130	327	0	1346	0	0	1	0	0	454	455	443	443	0	7898	27450	33364	32738

132	324	0	1343	0	0	1	0	0	454	455	443	443	0	7900	27450	33364	32734

135	314	0	1266	0	0	1	0	0	454	455	443	443	0	7900	27450	33364	32734

138	311	0	1045	0	0	1	0	0	454	455	443	443	0	7903	27447	33364	32743

141	297	0	1106	0	0	1	0	0	454	455	443	443	0	7905	27451	33353	32761

143	289	0	1159	0	0	1	0	0	454	455	443	443	0	7911	27451	33353	32781

147	282	14	1052	0	0	1	798	731	453	453	442	441	0	7905	27451	33353	32756

149	294	454	1030	0	0	1	1289	1339	453	453	442	441	0	7905	27451	33353	32756

152	306	735	1168	0	0	1	1397	1391	453	453	442	441	4	7753	27455	33353	32158

155	323	882	1482	0	0	1	1408	1405	453	453	442	441	5	7733	27450	33353	32080

158	344	1075	2217	0	0	1	1543	1524	453	453	442	441	6	7686	27450	33353	32080

160	372	1182	2620	0	0	1	1555	1544	453	453	442	441	7	7629	27423	33353	31747

163	382	1228	2644	0	0	1	1510	1499	453	453	442	441	7	7629	27423	33353	31437

166	408	1236	2461	0	0	1	1479	1484	451	451	440	439	7	7623	27470	33315	31450

168	386	0	2343	0	0	1	0	0	451	451	440	439	7	7617	27470	33315	31374

171	359	0	2458	0	0	1	0	0	451	451	440	439	7	7617	27470	33315	31374

174	313	0	2164	0	0	1	0	0	451	451	440	439	0	7861	27470	33315	32576

177	310	0	1354	0	0	1	0	0	451	451	440	439	0	7867	27470	33315	32609

179	302	209	1066	0	0	1	979	937	451	451	440	439	0	7872	27509	33430	32605

182	323	593	1384	0	0	1	1386	1422	451	451	440	439	4	7702	27509	33430	31951

185	324	779	2283	0	0	1	1292	1308	454	455	445	446	4	7702	27509	33430	31951

188	336	0	3096	0	0	1	0	0	454	455	445	446	4	7724	27509	33430	32071

190	327	0	2967	0	0	1	0	0	454	455	445	446	0	7857	27509	33430	32575

193	326	0	2281	0	0	1	0	0	454	455	445	446	0	7857	27509	33430	32575

196	321	320	1691	0	0	1	902	1219	454	455	445	446	0	7870	27532	33430	32627

199	334	751	706	0	0	1	1402	1348	454	455	445	446	0	7861	27541	33506	32614

202	341	888	1014	0	0	1	1391	1341	454	455	445	446	5	7682	27544	33506	31855

205	348	0	2463	0	0	1	0	0	454	455	445	446	5	7673	27543	33506	31802

207	338	0	3167	0	0	1	0	0	454	455	445	444	5	7673	27543	33506	31802

210	332	0	2677	0	0	1	0	0	454	455	445	444	0	7859	27568	33506	32599

213	336	384	2479	0	0	1	1362	933	454	455	445	444	0	7863	27560	33506	32618

216	353	770	2018	0	0	1	1492	1430	454	455	445	444	6	7630	27560	33506	31472

218	381	1089	1668	0	0	1	1703	1705	454	455	445	444	8	7584	27560	33506	31161

221	411	1306	1599	0	0	1	1738	1722	454	455	445	444	8	7584	27560	33506	31161

224	440	1410	1701	0	0	1	1720	1699	454	455	445	444	10	7494	27555	33506	30572

226	463	1299	1829	0	0	1	1685	1627	456	455	444	444	11	7462	27575	33506	30664

229	495	1378	1913	0	0	1	1687	1689	456	455	444	444	11	7462	27575	33506	30664

232	351	1366	1990	0	0	1	1666	1666	456	455	444	444	14	7387	27595	33506	29890

235	414	1313	2082	0	0	1	1610	1630	456	455	444	444	14	7343	27629	33506	29276

237	359	1276	2143	0	0	1	1640	1677	456	455	444	444	14	7338	27790	33823	29074

240	380	1245	2196	0	0	1	1639	1681	456	455	444	444	14	7328	27790	33823	29201

243	418	1217	2183	0	0	1	1638	1670	456	455	444	444	14	7328	27790	33823	29201

245	412	0	2164	0	0	1	0	0	461	462	449	451	14	7341	27997	34111	29503

248	424	0	2189	0	0	1	0	0	461	462	449	451	3	7754	28034	34111	32176

252	502	0	2177	0	0	1	0	0	461	462	449	451	0	7792	28065	34111	32333

254	431	0	2251	0	0	1	0	0	461	462	449	451	0	7799	28065	34111	32369

257	362	0	2249	0	0	1	0	0	461	462	449	451	0	7799	28065	34111	32369

260	292	0	2393	0	0	1	0	0	461	462	449	451	0	7808	28102	34111	32408

262	235	0	2609	0	0	1	0	0	461	462	449	451	0	7812	28109	34111	32434

265	191	0	3087	0	0	1	0	0	463	464	451	453	0	7812	28109	34111	32434

268	173	0	2445	0	0	1	0	0	463	464	451	453	0	7822	28192	34111	32471

271	168	0	709	0	0	1	0	0	463	464	451	453	0	7833	28289	34421	32469

273	170	0	0	0	0	1	0	0	463	464	451	453	0	7852	28301	34401	32476

276	159	0	0	0	0	1	0	0	463	464	451	453	0	7828	28295	34401	32494

279	150	0	637	0	0	1	0	0	463	464	451	453	0	7828	28295	34401	32494

282	149	228	2626	0	0	1	1272	1142	463	464	451	453	0	7835	28298	34401	32489

284	188	667	3282	0	0	1	1798	1808	463	464	451	453	0	7828	28307	34401	32484

287	219	1334	3166	0	0	1	1766	1776	459	458	448	448	0	7828	28307	34401	32484

290	249	1457	2997	0	0	1	1734	1719	459	458	448	448	5	7626	28283	34313	31385

292	278	1528	2801	0	0	1	1714	1716	459	458	448	448	5	7626	28283	34313	31518

295	302	1594	2588	0	0	1	1729	1741	459	458	448	448	7	7580	28283	34313	31221

298	337	1595	2486	0	0	1	1817	1813	459	458	448	448	7	7539	28283	34313	30957

301	363	1658	2355	0	0	1	1836	1834	459	458	448	448	7	7539	28283	34313	30957

304	393	1658	2119	0	0	1	1762	1766	459	458	448	448	10	7513	28287	34313	30530

307	427	1680	2040	0	0	1	1754	1742	461	461	449	450	10	7456	28302	34313	30418

309	443	1616	1983	0	0	1	1669	1608	461	461	449	450	10	7419	28307	34313	30178

312	483	1567	1996	0	0	1	1576	1510	461	461	449	450	10	7448	28337	34313	30438

315	514	1545	1918	0	0	1	1541	1491	461	461	449	450	10	7448	28337	34313	30438

318	537	1457	1866	0	0	1	1520	1496	461	461	449	450	12	7381	28337	34313	29913

320	419	1431	1732	0	0	1	1560	1516	461	461	449	450	12	7365	28354	34313	29747

323	413	0	1631	0	0	1	0	0	461	461	449	450	13	7320	28536	34563	29282

326	534	0	1622	0	0	1	0	0	466	467	454	458	0	7759	28536	34563	32221

329	508	0	1527	0	0	1	0	0	466	467	454	458	0	7759	28536	34563	32221

331	487	0	1512	0	0	1	0	0	466	467	454	458	0	7778	28575	34563	32293

334	480	0	1443	0	0	1	0	0	466	467	454	458	0	7784	28575	34563	32326

337	473	0	1419	0	0	1	0	0	466	467	454	458	0	7784	28575	34563	32326

339	462	54	1531	0	0	1	760	675	466	467	454	458	0	7792	28582	34563	32345

342	480	244	1424	0	0	1	1119	1015	466	467	454	458	0	7790	28595	34563	32368

345	487	380	1341	0	0	1	1191	1093	467	467	455	456	5	7640	28627	34720	31412

348	479	0	1524	0	0	1	0	0	467	467	455	456	1	7778	28614	34720	32285

350	468	0	1473	0	0	1	0	0	467	467	455	456	1	7778	28614	34720	32285

353	446	0	1511	0	0	1	0	0	467	467	455	456	0	7797	28614	34720	32399

356	407	0	1403	0	0	1	0	0	467	467	455	456	0	7800	28663	34720	32386

359	352	0	1259	0	0	1	0	0	467	467	455	456	0	7808	28663	34720	32409

362	311	0	1197	0	0	1	0	0	467	467	455	456	0	7808	28664	34720	32420

364	294	0	1052	0	0	1	0	0	467	467	455	456	0	7808	28664	34720	32420

367	287	0	827	0	0	1	0	0	465	463	453	452	0	7824	28649	34676	32425

370	269	0	927	0	0	1	0	0	465	463	453	452	0	7821	28623	34714	32433

373	261	0	1961	0	0	1	0	0	465	463	453	452	0	7821	28623	34714	32433

375	255	0	3372	0	0	1	466	342	465	463	453	452	0	7816	28623	34714	32447

378	254	159	3667	0	0	1	1059	977	465	463	453	452	0	7818	28623	34714	32456

381	266	543	2549	0	0	1	1328	1160	465	463	453	452	3	7712	28605	34714	31995

384	251	674	0	0	0	1	1283	1160	465	463	453	452	3	7700	28605	34714	31980

386	238	495	0	0	0	1	1121	1095	462	462	450	450	3	7700	28605	34714	31980

389	261	666	1222	0	0	1	1380	1348	462	462	450	450	1	7749	28590	34714	32173

392	290	1063	1057	0	0	1	1700	1754	462	462	450	450	5	7638	28567	34714	31542

395	317	1326	1327	0	0	1	1669	1675	462	462	450	450	5	7638	28567	34714	31542

397	340	1360	1545	0	0	1	1622	1625	462	462	450	450	8	7562	28567	34714	31098

400	363	1399	1698	0	0	1	1600	1600	462	462	450	450	7	7561	28566	34714	31183

403	379	1395	1938	0	0	1	1569	1570	462	462	450	450	8	7551	28543	34488	31106

406	407	1366	2241	0	0	1	1539	1521	463	463	451	451	8	7516	28541	34488	30832

409	417	1368	2292	0	0	1	1534	1494	463	463	451	451	8	7516	28541	34488	30832

411	444	1375	2365	0	0	1	1557	1503	463	463	451	451	8	7544	28551	34606	30762

414	464	1392	2350	0	0	1	1522	1451	463	463	451	451	8	7491	28553	34606	30665

417	500	1248	2509	0	0	1	1471	1485	463	463	451	451	10	7430	28553	34606	30404

420	470	0	2674	0	0	1	0	0	463	463	451	451	12	7349	28553	34606	29587

422	453	0	2623	0	0	1	0	0	463	463	451	451	12	7349	28553	34606	29587

425	445	0	2644	0	0	1	0	0	468	468	456	457	0	7779	28553	34606	32292

428	295	0	2856	0	0	1	0	0	468	468	456	457	0	7798	28597	34731	32318

431	393	98	2339	0	0	1	451	334	468	468	456	457	0	7798	28597	34731	32318

433	382	0	3164	0	0	1	0	0	468	468	456	457	0	7825	28596	34737	32338

436	377	0	3019	0	0	1	0	0	468	468	456	457	0	7794	28596	34737	32366

439	376	0	2861	0	0	1	0	0	468	468	456	457	0	7806	28619	34737	32390

441	380	0	2946	0	0	1	0	0	468	468	456	457	0	7803	28620	34737	32407

444	370	0	2904	0	0	1	0	0	468	468	456	457	0	7803	28620	34737	32407

447	366	0	2892	0	0	1	0	180	468	468	456	456	0	7805	28620	34737	32433

450	277	298	2852	0	0	1	1369	1262	468	468	456	456	0	7807	28620	34737	32426

452	288	695	2863	0	0	1	1688	1710	468	468	456	456	10	7460	28620	34737	30472

455	321	960	2791	0	0	1	1708	1739	468	468	456	456	11	7441	28650	34606	30452

458	279	1234	2856	0	0	1	1519	1550	468	468	456	456	11	7441	28650	34606	30452

461	310	1231	2841	0	0	1	1403	1447	468	468	456	456	8	7493	28650	34606	30609

464	323	1221	2860	0	0	1	1358	1403	468	468	456	456	10	7463	28650	34606	30516

467	281	1197	2799	0	0	1	1382	1429	465	464	453	451	10	7463	28650	34606	30516

469	309	1188	2703	0	0	1	1403	1415	465	464	453	451	11	7386	28656	34606	30125

472	303	1224	2474	0	0	1	1434	1476	465	464	453	451	11	7407	28656	34606	30222

475	336	1214	2141	0	0	1	1460	1507	465	464	453	451	12	7376	28656	34606	30018

477	350	0	1900	0	0	1	0	0	465	464	453	451	13	7308	28656	34606	29455

480	312	0	1776	0	0	1	0	0	465	464	453	451	13	7308	28656	34606	29455

483	395	0	1562	0	0	1	0	0	465	464	453	451	0	7752	28918	34972	32166

486	492	0	1382	0	0	1	0	0	468	468	457	458	0	7763	28924	35037	32243

488	486	135	1263	0	0	1	230	130	468	468	457	458	0	7812	28940	35073	32277

491	473	202	1258	0	0	1	1019	879	468	468	457	458	0	7772	28943	35073	32307

494	460	300	1233	0	0	1	1137	1013	468	468	457	458	0	7772	28943	35073	32307

497	462	0	1136	0	0	1	0	0	468	468	457	458	5	7609	28937	35073	31531

499	452	0	1230	0	0	1	0	0	468	468	457	458	0	7777	28937	35073	32308

502	443	0	1372	0	0	1	0	0	468	468	457	458	0	7777	28937	35073	32308

505	438	55	1499	0	0	1	518	151	468	468	457	458	0	7791	28961	35073	32336

508	447	249	1366	0	0	1	1197	1068	468	468	457	458	0	7787	28961	35073	32351

510	461	575	1176	0	0	1	1362	1370	468	468	457	458	7	7555	28961	35073	31069

514	460	644	1163	0	0	1	1171	1127	468	468	457	458	8	7494	28961	35073	30557

516	481	675	1534	0	0	1	1232	1198	468	468	457	458	8	7494	28961	35073	30557

519	501	788	1306	0	0	1	1384	1346	468	468	457	458	6	7578	28959	35073	31302

522	505	843	1289	0	0	1	1304	1273	468	468	457	458	10	7423	28959	35073	30130

525	504	0	1501	0	0	1	0	0	468	468	457	458	8	7465	28959	35073	30622

527	463	0	1516	0	0	1	0	0	467	468	456	456	0	7779	28969	35103	32241

530	417	0	1250	0	0	1	0	0	467	468	456	456	0	7779	28969	35103	32241

533	183	0	1537	0	0	1	0	0	467	468	456	456	0	7775	28969	35103	32292

535	155	0	1243	0	0	1	0	0	467	468	456	456	0	7780	29005	35064	32303

538	113	0	1132	0	0	1	0	0	467	468	456	456	0	7780	29005	35064	32303

541	124	0	2086	0	0	1	0	0	467	468	456	456	0	7787	29005	35064	32354

544	94	0	4095	0	0	1	0	0	467	468	456	456	0	7788	29001	35064	32350

546	96	9	4089	0	0	1	540	498	467	468	456	457	0	7793	29001	35064	32374

549	101	352	4007	0	0	1	1293	1337	467	468	456	457	0	7800	28984	35043	32346

552	109	760	3288	0	0	1	1568	1678	467	468	456	457	0	7800	28984	35043	32346

554	107	994	1607	0	0	1	1606	1710	467	468	456	457	5	7594	28965	35043	31309

557	115	1337	1005	0	0	1	1598	1685	467	468	456	457	5	7606	28965	35043	31422

560	130	1350	1356	0	0	1	1543	1550	467	468	456	457	5	7606	28965	35043	31422

563	144	1405	1773	0	0	1	1621	1607	467	468	456	457	5	7613	28922	35076	31464

566	164	1527	1906	0	0	1	1706	1711	467	467	455	455	6	7582	28934	35076	31277

569	177	1499	1895	0	0	1	1617	1659	467	467	455	455	8	7508	28938	35076	30867

571	189	1435	1909	0	0	1	1528	1570	467	467	455	455	8	7513	28932	35043	30743

574	204	1392	1857	0	0	1	1516	1548	467	467	455	455	8	7513	28932	35043	30743

577	205	1369	1788	0	0	1	1549	1590	467	467	455	455	8	7523	28932	35043	30985

580	181	0	1647	0	0	1	0	0	467	467	455	455	9	7461	28928	35043	30587

582	175	0	2466	0	0	1	0	0	467	467	455	455	0	7763	28941	35043	32265

585	176	0	3020	0	0	1	0	0	472	473	465	462	0	7773	28941	35043	32297

588	172	235	3046	0	0	1	746	708	472	473	465	462	0	7773	28941	35043	32297

591	184	647	2833	0	0	1	1390	1384	472	473	465	462	0	7767	28941	35043	32286

593	147	0	1610	0	0	1	0	0	472	473	465	462	6	7581	28980	35043	31286

596	141	0	1173	0	0	1	0	0	472	473	465	462	6	7581	28980	35043	31286

599	140	85	1192	0	0	1	0	274	472	473	465	462	0	7779	28966	35043	32316

602	293	422	1890	0	0	1	1032	1270	472	473	465	462	0	7784	28966	35043	32328

604	312	689	3102	0	0	1	1380	1387	472	473	465	462	4	7641	28966	35043	31648

607	325	867	3218	0	0	1	1414	1415	471	474	463	463	5	7600	28966	35043	31368

610	335	971	2715	0	0	1	1380	1383	471	474	463	463	5	7600	28966	35043	31368

612	351	993	1172	0	0	1	1343	1349	471	474	463	463	5	7589	28960	35043	31337

615	356	905	1143	0	0	1	1255	1250	471	474	463	463	5	7609	28946	34949	31395

618	365	808	1349	0	0	1	1209	1203	471	474	463	463	4	7653	28946	34949	31729

621	363	866	2521	0	0	1	1316	1309	471	474	463	463	4	7635	28950	34949	31569

624	386	866	3316	0	0	1	1316	1309	471	474	463	463	4	7635	28950	34949	31569

627	396	866	2574	0	0	1	1316	1309	471	474	463	463	7	7530	28950	34949	30978

629	422	866	2232	0	0	1	1316	1309	471	474	463	463	7	7516	28949	34949	30805

632	433	866	1332	0	0	1	1316	1309	471	474	463	463	9	7489	28956	35017	30805

635	410	866	1181	0	0	1	1316	1309	471	474	463	463	1	7749	28956	35017	30507

638	402	866	1899	0	0	1	1316	1309	471	474	463	463	1	7749	28956	35017	32174

640	382	866	2396	0	0	1	1316	1309	471	474	463	463	0	7770	28962	34975	32268

643	376	866	2749	0	0	1	1316	1309	471	474	463	463	0	7775	28964	34975	32302

646	372	866	3031	0	0	1	1316	1309	471	474	463	463	0	7775	28964	34975	32302

648	368	866	2967	0	0	1	1316	1309	471	474	463	463	0	7782	28964	34975	32322

651	352	866	2226	0	0	1	1316	1309	471	474	463	463	0	7785	28964	34975	32326

654	348	866	1886	0	0	1	1316	1309	471	474	463	463	0	7792	28964	34975	32350

657	349	866	1850	0	0	1	1316	1309	471	474	463	463	0	7794	28964	34975	32358

659	348	866	1832	0	0	1	1316	1309	471	474	463	463	0	7794	28964	34975	32358

662	379	866	1766	0	0	1	1316	1309	471	474	463	463	3	7644	28964	34975	31539

665	402	866	1892	0	0	1	1316	1309	471	474	463	463	7	7530	28964	34975	30869

668	426	866	1918	0	0	1	1316	1309	471	474	463	463	7	7530	28964	34975	30869

671	455	866	1706	0	0	1	1316	1309	471	474	463	463	10	7407	28965	34975	30134

674	475	866	1668	0	0	1	1316	1309	471	474	463	463	10	7407	28965	34975	30134

676	491	866	1579	0	0	1	1316	1309	471	474	463	463	10	7445	28965	34975	30232

679	500	866	1427	0	0	1	1316	1309	471	474	463	463	8	7474	28965	34975	30666

682	474	866	1339	0	0	1	1316	1309	471	474	463	463	8	7474	28965	34975	30666

684	470	866	1349	0	0	1	1316	1309	471	474	463	463	0	7756	28981	34975	32201

687	467	866	1336	0	0	1	1316	1309	471	474	463	463	0	7781	29021	35094	32251

690	452	866	1422	0	0	1	1316	1309	471	474	463	463	0	7816	29023	35109	32288

693	447	866	1283	0	0	1	1316	1309	471	474	463	463	0	7769	29010	35005	32276

695	436	866	1371	0	0	1	1316	1309	471	474	463	463	0	7769	29010	35005	32276

698	426	866	1360	0	0	1	1316	1309	471	474	463	463	0	7774	29010	35005	32308

701	416	866	1454	0	0	1	1316	1309	471	474	463	463	0	7794	29023	35126	32325

704	407	866	1385	0	0	1	1316	1309	471	474	463	463	0	7794	29023	35126	32325

706	410	866	1448	0	0	1	1316	1309	471	474	463	463	0	7787	29017	35126	32336

709	404	866	1384	0	0	1	1316	1309	471	474	463	463	5	7593	29017	35126	31298

712	386	866	1364	0	0	1	1316	1309	471	474	463	463	0	7788	29006	35126	32347

715	378	866	1435	0	0	1	1316	1309	471	474	463	463	0	7791	29006	35126	32363

717	385	866	1428	0	0	1	1316	1309	471	474	463	463	0	7791	29006	35126	32363

720	380	866	1446	0	0	1	1316	1309	471	474	463	463	5	7629	29016	35049	31316

723	369	866	1442	0	0	1	1316	1309	471	474	463	463	0	7797	29013	35031	32375

726	365	866	1508	0	0	1	1316	1309	471	474	463	463	0	7797	29013	35031	32388

729	380	866	1788	0	0	1	1316	1309	471	474	463	463	0	7774	29001	35031	32318

731	387	866	2330	0	0	1	1316	1309	471	474	463	463	0	7774	29001	35031	32318

734	419	866	2640	0	0	1	1316	1309	471	474	463	463	8	7528	28977	35031	30865

737	412	866	2833	0	0	1	1316	1309	471	474	463	463	8	7493	28994	35031	30663

740	392	866	2863	0	0	1	1316	1309	471	474	463	463	8	7493	28994	35031	30663

742	349	866	2578	0	0	1	1316	1309	471	474	463	463	0	7787	28985	35031	32308

745	300	866	1235	0	0	1	1316	1309	471	474	463	463	0	7805	28979	35014	32362

748	293	866	965	0	0	1	1316	1309	471	474	463	463	0	7793	28977	35014	32369

751	299	866	965	0	0	1	1316	1309	471	474	463	463	0	7783	28977	35014	32342

753	305	866	1424	0	0	1	1316	1309	471	474	463	463	0	7783	28977	35014	32342

756	329	866	2806	0	0	1	1316	1309	471	474	463	463	6	7579	28984	35014	31246

759	321	866	3278	0	0	1	1316	1309	471	474	463	463	6	7583	28984	35014	31246

761	317	866	3192	0	0	1	1316	1309	471	474	463	463	0	7794	28977	35014	31246

764	313	866	2901	0	0	1	1316	1309	471	474	463	463	0	7812	28938	34954	32361

767	278	866	1371	0	0	1	1316	1309	471	474	463	463	0	7812	28938	34954	32392

770	272	866	1111	0	0	1	1316	1309	471	474	463	463	0	7798	28929	34954	32390

772	267	866	791	0	0	1	1316	1309	471	474	463	463	0	7800	28937	34954	32412

776	284	866	1191	0	0	1	1316	1309	471	474	463	463	0	7800	28937	34954	32412

778	308	866	2225	0	0	1	1316	1309	471	474	463	463	4	7620	28914	34954	31467

781	327	866	3132	0	0	1	1316	1309	471	474	463	463	7	7553	28931	34954	31054

784	343	866	3156	0	0	1	1316	1309	471	474	463	463	7	7556	28931	34954	31047

787	364	866	3129	0	0	1	1316	1309	471	474	463	463	7	7520	28925	34954	30821

789	365	866	3103	0	0	1	1316	1309	471	474	463	463	7	7520	28925	34954	30821

792	374	866	3083	0	0	1	1316	1309	471	474	463	463	7	7562	28923	34893	30928

795	390	866	2314	0	0	1	1316	1309	471	474	463	463	8	7488	28923	34893	30616

797	397	866	3077	0	0	1	1316	1309	471	474	463	463	9	7478	28930	34896	30584

800	409	866	3115	0	0	1	1316	1309	471	474	463	463	9	7448	28930	34896	30450

803	304	866	2943	0	0	1	1316	1309	471	474	463	463	9	7448	28930	34896	30450

806	303	866	2986	0	0	1	1316	1309	471	474	463	463	8	7507	28944	34896	30850

808	303	866	2189	0	0	1	1316	1309	471	474	463	463	7	7518	28944	34896	30809

811	309	866	2912	0	0	1	1316	1309	471	474	463	463	7	7518	28944	34896	30809

814	314	866	2950	0	0	1	1316	1309	471	474	463	463	8	7493	28973	34896	30761

817	322	866	3029	0	0	1	1316	1309	471	474	463	463	9	7459	29005	35088	30363

819	297	866	2940	0	0	1	1316	1309	471	474	463	463	9	7457	29038	35088	30518

822	253	866	2814	0	0	1	1316	1309	471	474	463	463	9	7458	29101	35088	30457

825	256	866	2845	0	0	1	1316	1309	471	474	463	463	9	7458	29101	35088	30457

828	273	866	2736	0	0	1	1316	1309	471	474	463	463	9	7421	29134	35088	30359

831	310	866	2035	0	0	1	1316	1309	471	474	463	463	11	7385	29134	35088	29875

834	309	866	1852	0	0	1	1316	1309	471	474	463	463	12	7330	29191	35088	29481

836	310	866	1667	0	0	1	1316	1309	471	474	463	463	0	7743	29253	35354	32114

839	408	866	1413	0	0	1	1316	1309	471	474	463	463	0	7743	29253	35354	32114

842	404	866	1217	0	0	1	1316	1309	471	474	463	463	0	7750	29254	35354	32180

845	394	866	1496	0	0	1	1316	1309	471	474	463	463	0	7756	29254	35354	32229

847	421	866	2652	0	0	1	1316	1309	471	474	463	463	0	7756	29254	35354	32229

850	448	866	2750	0	0	1	1316	1309	471	474	463	463	11	7403	29254	35354	30091

853	357	866	2125	0	0	1	1316	1309	471	474	463	463	13	7310	29348	35402	29484

855	372	866	2851	0	0	1	1316	1309	471	474	463	463	13	7285	29348	35402	29248

858	346	866	2698	0	0	1	1316	1309	471	474	463	463	13	7317	29348	35402	29501

861	396	866	2597	0	0	1	1316	1309	471	474	463	463	13	7317	29348	35402	29501

863	321	866	2442	0	0	1	1316	1309	471	474	463	463	13	7298	29370	35402	29542

866	343	866	2226	0	0	1	1316	1309	471	474	463	463	14	7254	29370	35402	29198

869	370	866	1994	0	0	1	1316	1309	471	474	463	463	14	7254	29370	35402	29198

872	555	866	1764	0	0	1	1316	1309	471	474	463	463	13	7198	29390	35402	28800

874	529	866	1631	0	0	1	1316	1309	471	474	463	463	0	7709	29521	35402	32016

877	507	866	1531	0	0	1	1316	1309	471	474	463	463	0	7730	29814	35983	32103

880	501	866	1633	0	0	1	1316	1309	471	474	463	463	0	7737	29819	35983	32140

883	522	866	1587	0	0	1	1316	1309	471	474	463	463	0	7737	29819	35983	32140

886	506	866	1356	0	0	1	1316	1309	471	474	463	463	9	7438	29826	35983	30532

889	509	866	1435	0	0	1	1316	1309	471	474	463	463	6	7544	29826	35983	31220

891	469	866	1533	0	0	1	1316	1309	471	474	463	463	0	7743	29826	35983	32145

894	430	866	1259	0	0	1	1316	1309	471	474	463	463	0	7747	29846	35983	32168

897	415	866	1325	0	0	1	1316	1309	471	474	463	463	0	7747	29846	35983	32168

900	405	866	1434	0	0	1	1316	1309	471	474	463	463	0	7761	29866	35983	32215

902	406	866	1290	0	0	1	1316	1309	471	474	463	463	0	7750	29866	35983	32187

905	393	866	1315	0	0	1	1316	1309	471	474	463	463	0	7750	29866	35983	32187

908	371	866	1298	0	0	1	1316	1309	471	474	463	463	0	7754	29861	35983	32212

911	351	866	1146	0	0	1	1316	1309	471	474	463	463	0	7761	29849	35983	32223

913	341	866	1068	0	0	1	1316	1309	471	474	463	463	0	7767	29849	35983	32271

916	328	866	1017	0	0	1	1316	1309	471	474	463	463	0	7772	29835	35932	32259

919	318	866	1117	0	0	1	1316	1309	471	474	463	463	0	7772	29835	35932	32259

922	350	866	1263	0	0	1	1316	1309	471	474	463	463	2	7680	29835	35932	31858

924	360	866	1425	0	0	1	1316	1309	471	474	463	463	6	7563	29831	35932	31272

927	368	866	1645	0	0	1	1316	1309	471	474	463	463	6	7548	29824	35932	31186

930	401	866	2016	0	0	1	1316	1309	471	474	463	463	6	7544	29748	35805	31136

933	426	866	2204	0	0	1	1316	1309	471	474	463	463	6	7544	29748	35805	31136

936	457	866	2313	0	0	1	1316	1309	471	474	463	463	10	7397	29743	35805	30168

938	423	866	2310	0	0	1	1316	1309	471	474	463	463	11	7378	29736	35805	30159

941	406	866	2257	0	0	1	1316	1309	471	474	463	463	0	7747	29733	35805	30159

944	406	866	2300	0	0	1	1316	1309	471	474	463	463	0	7753	29732	35805	32156

947	403	866	2486	0	0	1	1316	1309	471	474	463	463	0	7753	29732	35805	32192

949	382	866	1912	0	0	1	1316	1309	471	474	463	463	0	7761	29748	35805	32239

952	363	866	1282	0	0	1	1316	1309	471	474	463	463	0	7775	29760	35873	32249

955	369	866	1073	0	0	1	1316	1309	471	474	463	463	0	7775	29760	35873	32249

957	390	866	1929	0	0	1	1316	1309	471	474	463	463	3	7648	29753	35839	31730

960	398	866	2585	0	0	1	1316	1309	471	474	463	463	6	7549	29726	35839	31040

963	391	866	3326	0	0	1	1316	1309	471	474	463	463	6	7540	29726	35839	31072

966	183	866	3016	0	0	1	1316	1309	471	474	463	463	0	7749	29726	35839	32165

968	178	866	1473	0	0	1	1316	1309	471	474	463	463	0	7749	29726	35839	32165

971	172	866	1016	0	0	1	1316	1309	471	474	463	463	0	7765	29726	35839	32243

974	173	866	1366	0	0	1	1316	1309	471	474	463	463	0	7770	29726	35839	32269

977	176	866	1902	0	0	1	1316	1309	471	474	463	463	0	7770	29726	35839	32269

979	186	866	2395	0	0	1	1316	1309	471	474	463	463	8	7514	29726	35839	30818

982	208	866	2363	0	0	1	1316	1309	471	474	463	463	10	7451	29716	35799	30383

985	225	866	2226	0	0	1	1316	1309	471	474	463	463	15	7229	29716	35799	28724

988	251	866	2173	0	0	1	1316	1309	471	474	463	463	17	7155	29716	35799	28489

991	271	866	2069	0	0	1	1316	1309	471	474	463	463	17	7155	29716	35799	28489

993	273	866	2097	0	0	1	1316	1309	471	474	463	463	15	7274	29770	35879	29264

996	299	866	2145	0	0	1	1316	1309	471	474	463	463	15	7220	29770	35879	29109

999	306	866	2165	0	0	1	1316	1309	471	474	463	463	17	7140	29770	35879	28441

1002	323	866	2181	0	0	1	1316	1309	471	474	463	463	18	7089	29832	35879	28069

1004	318	866	2119	0	0	1	1316	1309	471	474	463	463	18	7089	29832	35879	28069

1007	275	866	2099	0	0	1	1316	1309	471	474	463	463	2	7661	30013	35879	31793

1010	275	866	2060	0	0	1	1316	1309	471	474	463	463	0	7698	30309	36578	31961

1013	240	866	2116	0	0	1	1316	1309	471	474	463	463	0	7698	30309	36578	31961

1015	217	866	2316	0	0	1	1316	1309	471	474	463	463	0	7719	30309	36578	32064

1018	173	866	2394	0	0	1	1316	1309	471	474	463	463	0	7726	30309	36578	32076

1021	152	866	2385	0	0	1	1316	1309	471	474	463	463	0	7739	30309	36578	32113

1024	115	866	2956	0	0	1	1316	1309	471	474	463	463	0	7742	30309	36578	32137

1026	96	866	2783	0	0	1	1316	1309	471	474	463	463	0	7742	30309	36578	32137

1029	83	866	1163	0	0	1	1316	1309	471	474	463	463	0	7747	30346	36578	32162

1032	141	866	146	0	0	1	1316	1309	471	474	463	463	0	7751	30346	36578	32189

1034	131	866	0	0	0	1	1316	1309	471	474	463	463	0	7751	30346	36578	32189

1038	121	866	0	0	0	1	1316	1309	471	474	463	463	0	7759	30447	36627	32227

1041	140	866	832	0	0	1	1316	1309	471	474	463	463	0	7759	30447	36627	32227

1043	164	866	2795	0	0	1	1316	1309	471	474	463	463	3	7659	30447	36627	31821

1046	203	866	3293	0	0	1	1316	1309	471	474	463	463	4	7618	30427	36627	31622

1049	240	866	3205	0	0	1	1316	1309	471	474	463	463	4	7618	30427	36627	31622

1051	270	866	2963	0	0	1	1316	1309	471	474	463	463	6	7522	30427	36627	31045

1054	298	866	2802	0	0	1	1316	1309	471	474	463	463	8	7489	30427	36627	30843

1057	329	866	2500	0	0	1	1316	1309	471	474	463	463	8	7496	30393	36534	30682

1060	355	866	2247	0	0	1	1316	1309	471	474	463	463	7	7485	30374	36534	30849

1062	390	866	2239	0	0	1	1316	1309	471	474	463	463	7	7485	30374	36534	30849

1065	424	866	2092	0	0	1	1316	1309	471	474	463	463	12	7311	30372	36534	29690

1068	468	866	1985	0	0	1	1316	1309	471	474	463	463	13	7290	30366	36534	29620

1070	511	866	1920	0	0	1	1316	1309	471	474	463	463	19	7059	30395	36524	29620

1073	534	866	1914	0	0	1	1316	1309	471	474	463	463	19	7056	30395	36524	28236

1076	582	866	1853	0	0	1	1316	1309	471	474	463	463	19	7056	30395	36524	28268

1079	615	866	1808	0	0	1	1316	1309	471	474	463	463	19	7072	30395	36524	28474

1081	597	866	1668	0	0	1	1316	1309	471	474	463	463	18	7077	30395	36524	28308

1084	582	866	1628	0	0	1	1316	1309	471	474	463	463	18	7077	30395	36524	28308

1087	554	866	1496	0	0	1	1316	1309	471	474	463	463	0	7688	30566	36524	31865

1090	527	866	1669	0	0	1	1316	1309	471	474	463	463	0	7710	30963	37240	31933

1093	514	866	1382	0	0	1	1316	1309	471	474	463	463	0	7712	30970	37240	32022

1096	516	866	1338	0	0	1	1316	1309	471	474	463	463	5	7538	30992	37240	31198

1098	513	866	1366	0	0	1	1316	1309	471	474	463	463	5	7538	30992	37240	31198

1101	507	866	1513	0	0	1	1316	1309	471	474	463	463	0	7717	31001	37240	32033

1104	507	866	1372	0	0	1	1316	1309	471	474	463	463	0	7726	31007	37240	32075

1107	480	866	1479	0	0	1	1316	1309	471	474	463	463	0	7748	31075	37350	32103

1109	434	866	1576	0	0	1	1316	1309	471	474	463	463	0	7739	31075	37350	32132

1112	399	866	1287	0	0	1	1316	1309	471	474	463	463	0	7739	31075	37350	32132

1115	370	866	1266	0	0	1	1316	1309	471	474	463	463	0	7744	31010	37181	32140

1117	349	866	1110	0	0	1	1316	1309	471	474	463	463	0	7758	31023	37287	32178

1120	312	866	1041	0	0	1	1316	1309	471	474	463	463	0	7758	31023	37287	32178

1123	289	866	1129	0	0	1	1316	1309	471	474	463	463	0	7753	31023	37287	32178

1126	266	866	894	0	0	1	1316	1309	471	474	463	463	0	7755	31023	37287	32182

1128	259	866	1650	0	0	1	1316	1309	471	474	463	463	0	7754	31007	37287	32195

1131	266	866	3177	0	0	1	1316	1309	471	474	463	463	2	7681	30984	37287	31934

1134	269	866	3469	0	0	1	1316	1309	471	474	463	463	2	7681	30984	37287	31934

1137	264	866	2599	0	0	1	1316	1309	471	474	463	463	0	7767	30907	37039	32201

1139	253	866	789	0	0	1	1316	1309	471	474	463	463	0	7779	30898	36997	32245

1143	235	866	0	0	0	1	1316	1309	471	474	463	463	1	7737	30887	36951	32015

1145	230	866	0	0	0	1	1316	1309	471	474	463	463	1	7699	30887	36951	32003

1148	223	866	0	0	0	1	1316	1309	471	474	463	463	1	7699	30887	36951	32003

1151	224	866	1569	0	0	1	1316	1309	471	474	463	463	0	7740	30836	36804	32122

1154	252	866	2832	0	0	1	1316	1309	471	474	463	463	4	7617	30797	36804	31613

1156	287	866	2832	0	0	1	1316	1309	471	474	463	463	4	7617	30797	36804	31613

1159	335	866	2738	0	0	1	1316	1309	471	474	463	463	10	7417	30640	36778	30276

1162	370	866	2505	0	0	1	1316	1309	471	474	463	463	14	7281	30648	36778	29500

1164	421	866	2044	0	0	1	1316	1309	471	474	463	463	18	7097	30648	36778	28461

1167	459	866	1951	0	0	1	1316	1309	471	474	463	463	14	7265	30741	36814	29436

1170	491	866	2131	0	0	1	1316	1309	471	474	463	463	14	7265	30741	36814	29436

1173	532	866	2380	0	0	1	1316	1309	471	474	463	463	18	7077	30753	36814	28626

1175	530	866	2577	0	0	1	1316	1309	471	474	463	463	19	7039	30769	36814	28239

1178	497	866	2600	0	0	1	1316	1309	471	474	463	463	19	7039	30769	36814	28239

1181	470	866	2735	0	0	1	1316	1309	471	474	463	463	0	7692	30885	36814	31909

1183	439	866	2856	0	0	1	1316	1309	471	474	463	463	0	7704	31008	36814	31972

1186	424	866	2863	0	0	1	1316	1309	471	474	463	463	0	7722	31008	36814	32056

1189	415	866	3154	0	0	1	1316	1309	471	474	463	463	0	7728	31030	36814	32077

1192	417	866	2972	0	0	1	1316	1309	471	474	463	463	0	7728	31030	36814	32077

1195	403	866	2682	0	0	1	1316	1309	471	474	463	463	0	7738	31208	37356	32115

1198	392	866	2234	0	0	1	1316	1309	471	474	463	463	0	7740	31213	37356	32140

1200	374	866	2901	0	0	1	1316	1309	471	474	463	463	0	7773	31217	37440	32169

1203	379	866	2830	0	0	1	1316	1309	471	474	463	463	0	7757	31214	37427	32167

1206	373	866	2806	0	0	1	1316	1309	471	474	463	463	0	7757	31214	37427	32167

1209	372	866	2813	0	0	1	1316	1309	471	474	463	463	0	7754	31199	37427	32204

1211	379	866	2783	0	0	1	1316	1309	471	474	463	463	0	7757	31196	37427	32208

1214	380	866	2764	0	0	1	1316	1309	471	474	463	463	0	7757	31196	37427	32208

1217	383	866	2786	0	0	1	1316	1309	471	474	463	463	4	7612	31143	37427	31569

1220	313	866	2748	0	0	1	1316	1309	471	474	463	463	5	7580	31143	37427	31347

1222	334	866	2751	0	0	1	1316	1309	471	474	463	463	11	7372	31129	37427	30063

1225	357	866	2681	0	0	1	1316	1309	471	474	463	463	12	7345	31129	37427	29935

1228	374	866	2572	0	0	1	1316	1309	471	474	463	463	12	7345	31129	37427	29935

1231	334	866	2348	0	0	1	1316	1309	471	474	463	463	14	7259	31136	37427	29335

1233	426	866	2082	0	0	1	1316	1309	471	474	463	463	15	7233	31109	37273	29382

1236	384	866	1866	0	0	1	1316	1309	471	474	463	463	15	7218	31145	37273	29323

1239	552	866	1760	0	0	1	1316	1309	471	474	463	463	0	7692	31145	37273	31908

1241	517	866	1557	0	0	1	1316	1309	471	474	463	463	0	7692	31145	37273	31908

1244	496	866	1359	0	0	1	1316	1309	471	474	463	463	0	7718	31145	37273	32027

1247	480	866	1352	0	0	1	1316	1309	471	474	463	463	0	7726	31286	37407	32063

1250	465	866	1533	0	0	1	1316	1309	471	474	463	463	0	7726	31286	37407	32063

1253	460	866	1367	0	0	1	1316	1309	471	474	463	463	0	7737	31286	37407	32121

1256	452	866	1311	0	0	1	1316	1309	471	474	463	463	0	7742	31289	37407	32128

1258	446	866	1304	0	0	1	1316	1309	471	474	463	463	0	7750	31274	37407	32151

1261	467	866	1286	0	0	1	1316	1309	471	474	463	463	6	7529	31276	37407	31182

1264	476	866	1332	0	0	1	1316	1309	471	474	463	463	6	7529	31276	37407	31182

1266	475	866	1199	0	0	1	1316	1309	471	474	463	463	6	7549	31276	37407	31255

1269	478	866	1095	0	0	1	1316	1309	471	474	463	463	5	7592	31276	37407	31534

1272	482	866	1186	0	0	1	1316	1309	471	474	463	463	3	7630	31221	37357	31654

1275	490	866	1247	0	0	1	1316	1309	471	474	463	463	5	7559	31226	37357	31330

1277	489	866	1380	0	0	1	1316	1309	471	474	463	463	5	7559	31226	37357	31330

1280	492	866	1543	0	0	1	1316	1309	471	474	463	463	5	7574	31215	37300	31304

1283	503	866	1355	0	0	1	1316	1309	471	474	463	463	5	7547	31200	37300	31254

1286	455	866	1493	0	0	1	1316	1309	471	474	463	463	5	7547	31200	37300	31254

1288	422	866	1391	0	0	1	1316	1309	471	474	463	463	0	7726	31176	37300	32086

1291	382	866	1330	0	0	1	1316	1309	471	474	463	463	0	7738	31176	37300	32109

1294	362	866	1660	0	0	1	1316	1309	471	474	463	463	0	7747	31176	37300	32153

1297	350	866	1979	0	0	1	1316	1309	471	474	463	463	0	7752	31176	37300	32168

1300	370	866	2518	0	0	1	1316	1309	471	474	463	463	0	7752	31176	37300	32168

1302	387	866	2295	0	0	1	1316	1309	471	474	463	463	6	7561	31108	37300	31363

1305	413	866	1951	0	0	1	1316	1309	471	474	463	463	7	7505	31108	37300	30948

1308	441	866	2174	0	0	1	1316	1309	471	474	463	463	8	7472	31116	37300	30861

1311	458	866	2405	0	0	1	1316	1309	471	474	463	463	8	7451	31108	37300	30660

1313	481	866	2483	0	0	1	1316	1309	471	474	463	463	8	7451	31108	37300	30660

1316	469	866	2477	0	0	1	1316	1309	471	474	463	463	11	7358	31107	37300	30214

1319	423	866	2512	0	0	1	1316	1309	471	474	463	463	1	7702	31107	37300	31938

1322	373	866	2740	0	0	1	1316	1309	471	474	463	463	1	7702	31107	37300	31938

1324	350	866	1921	0	0	1	1316	1309	471	474	463	463	0	7733	31084	37300	32078

1327	340	866	1131	0	0	1	1316	1309	471	474	463	463	0	7739	31061	37108	32109

1330	343	866	1176	0	0	1	1316	1309	471	474	463	463	0	7777	31052	37098	32150

1333	359	866	1791	0	0	1	1316	1309	471	474	463	463	6	7536	31036	37098	31185

1335	376	866	2992	0	0	1	1316	1309	471	474	463	463	6	7536	31036	37098	31185

1338	366	866	3569	0	0	1	1316	1309	471	474	463	463	6	7523	31022	37098	31105

1341	355	866	3144	0	0	1	1316	1309	471	474	463	463	3	7626	31033	37098	31681

1343	342	866	1616	0	0	1	1316	1309	471	474	463	463	3	7626	31033	37098	31681

1346	334	866	931	0	0	1	1316	1309	471	474	463	463	0	7757	31027	37065	32147

1349	323	866	1688	0	0	1	1316	1309	471	474	463	463	0	7752	31031	37065	32162

1352	316	866	2830	0	0	1	1316	1309	471	474	463	463	0	7756	30969	36993	32200

1355	315	866	2968	0	0	1	1316	1309	471	474	463	463	0	7760	30969	36993	32223

1358	310	866	2730	0	0	1	1316	1309	471	474	463	463	0	7760	30969	36993	32223

1361	301	866	2396	0	0	1	1316	1309	471	474	463	463	0	7764	30969	36993	32223

1363	311	866	1719	0	0	1	1316	1309	471	474	463	463	0	7762	30969	36993	32230

1366	326	866	1366	0	0	1	1316	1309	471	474	463	463	3	7650	30947	36993	31788

1369	348	866	1384	0	0	1	1316	1309	471	474	463	463	7	7492	30948	36993	30819

1371	381	866	1921	0	0	1	1316	1309	471	474	463	463	7	7492	30948	36993	30819

1374	410	866	2122	0	0	1	1316	1309	471	474	463	463	9	7491	30903	36886	30623

1377	427	866	2621	0	0	1	1316	1309	471	474	463	463	9	7440	30900	36886	30441

1379	456	866	2619	0	0	1	1316	1309	471	474	463	463	9	7440	30900	36886	30441

1382	481	866	2628	0	0	1	1316	1309	471	474	463	463	10	7376	30864	36886	30165

1385	515	866	2610	0	0	1	1316	1309	471	474	463	463	12	7327	30874	36886	29922

1388	515	866	2976	0	0	1	1316	1309	471	474	463	463	10	7370	30911	36886	30157

1390	531	866	2055	0	0	1	1316	1309	471	474	463	463	10	7401	30941	37023	30273

1393	528	866	1684	0	0	1	1316	1309	471	474	463	463	10	7401	30941	37023	30273

1396	501	866	1748	0	0	1	1316	1309	471	474	463	463	0	7716	30941	37023	32023

1399	514	866	1814	0	0	1	1316	1309	471	474	463	463	0	7728	30941	37023	32060

1401	509	866	1745	0	0	1	1316	1309	471	474	463	463	0	7739	30965	37023	32112

1405	522	866	1620	0	0	1	1316	1309	471	474	463	463	6	7509	30995	37029	30857

1407	507	866	1573	0	0	1	1316	1309	471	474	463	463	6	7509	30995	37029	30857

1410	491	866	1433	0	0	1	1316	1309	471	474	463	463	0	7749	30995	37029	32139

1413	486	866	1414	0	0	1	1316	1309	471	474	463	463	0	7761	31000	37062	32151

1416	480	866	1531	0	0	1	1316	1309	471	474	463	463	0	7748	31001	37062	32151

1418	497	866	1238	0	0	1	1316	1309	471	474	463	463	8	7461	30976	37062	30707

1421	491	866	1196	0	0	1	1316	1309	471	474	463	463	8	7461	30976	37062	30707

1424	483	866	1228	0	0	1	1316	1309	471	474	463	463	5	7582	31007	37062	31463

1427	460	866	1171	0	0	1	1316	1309	471	474	463	463	1	7735	30993	37062	32088

1429	438	866	1256	0	0	1	1316	1309	471	474	463	463	1	7735	30993	37062	32088

1432	430	866	1287	0	0	1	1316	1309	471	474	463	463	0	7752	30958	36954	32169

1435	411	866	1414	0	0	1	1316	1309	471	474	463	463	0	7765	30955	37013	32208

1437	439	866	1338	0	0	1	1316	1309	471	474	463	463	4	7590	30953	36970	31309

1440	445	866	1212	0	0	1	1316	1309	471	474	463	463	11	7401	30953	36970	30347

1443	460	866	1643	0	0	1	1316	1309	471	474	463	463	11	7401	30953	36970	30347

1446	483	866	1336	0	0	1	1316	1309	471	474	463	463	12	7345	30940	36925	30175

1448	497	866	1385	0	0	1	1316	1309	471	474	463	463	12	7328	30940	36925	29987

1451	500	866	1428	0	0	1	1316	1309	471	474	463	463	12	7328	30940	36925	29987

1454	524	866	1911	0	0	1	1316	1309	471	474	463	463	11	7360	30940	36925	30231

1457	504	866	1989	0	0	1	1316	1309	471	474	463	463	10	7364	30940	36925	30108

1460	438	866	2671	0	0	1	1316	1309	471	474	463	463	0	7727	31015	37144	31931

1463	419	866	2966	0	0	1	1316	1309	471	474	463	463	0	7716	31068	37144	32011

1465	400	866	3032	0	0	1	1316	1309	471	474	463	463	0	7716	31068	37144	32011

1468	355	866	1654	0	0	1	1316	1309	471	474	463	463	0	7731	31088	37144	32080

1471	310	866	693	0	0	1	1316	1309	471	474	463	463	0	7737	31084	37144	32101

1473	292	866	871	0	0	1	1316	1309	471	474	463	463	0	7745	31100	37144	32127

1476	304	866	1910	0	0	1	1316	1309	471	474	463	463	6	7510	31099	37144	31028

1479	338	866	2092	0	0	1	1316	1309	471	474	463	463	6	7510	31099	37144	31028

1482	314	866	2948	0	0	1	1316	1309	471	474	463	463	12	7342	31099	37144	30054

1484	299	866	3138	0	0	1	1316	1309	471	474	463	463	0	7723	31131	37190	31993

1487	298	866	3067	0	0	1	1316	1309	471	474	463	463	0	7723	31131	37190	31993

1490	297	866	2649	0	0	1	1316	1309	471	474	463	463	0	7737	31138	37190	32115

1493	306	866	865	0	0	1	1316	1309	471	474	463	463	0	7732	31138	37190	32106

1495	297	866	730	0	0	1	1316	1309	471	474	463	463	0	7734	31138	37190	32084

1498	287	866	1198	0	0	1	1316	1309	471	474	463	463	0	7744	31138	37190	32145

1501	294	866	1486	0	0	1	1316	1309	471	474	463	463	0	7744	31138	37190	32145

1503	304	866	3090	0	0	1	1316	1309	471	474	463	463	2	7659	31138	37190	31830

1506	321	866	3253	0	0	1	1316	1309	471	474	463	463	5	7560	31130	37190	31313

1509	335	866	3199	0	0	1	1316	1309	471	474	463	463	7	7546	31097	37131	31043

1512	356	866	2858	0	0	1	1316	1309	471	474	463	463	7	7515	31073	37131	31076

1515	365	866	3085	0	0	1	1316	1309	471	474	463	463	7	7515	31073	37131	31076

1518	394	866	3093	0	0	1	1316	1309	471	474	463	463	7	7519	31087	37125	30942

1520	403	866	2976	0	0	1	1316	1309	471	474	463	463	7	7507	31087	37125	31057

1523	407	866	3241	0	0	1	1316	1309	471	474	463	463	7	7507	31087	37125	31057

1526	401	866	2980	0	0	1	1316	1309	471	474	463	463	7	7518	31087	37125	31106

1529	405	866	2932	0	0	1	1316	1309	471	474	463	463	6	7527	31087	37125	31124

1531	399	866	2941	0	0	1	1316	1309	471	474	463	463	7	7488	31087	37125	30841

1534	285	866	2927	0	0	1	1316	1309	471	474	463	463	8	7465	31086	37102	30728

1537	272	866	2628	0	0	1	1316	1309	471	474	463	463	8	7465	31086	37102	30728

1540	263	866	2577	0	0	1	1316	1309	471	474	463	463	8	7422	31123	37102	30630

1542	271	866	2860	0	0	1	1316	1309	471	474	463	463	9	7407	31123	37102	30505

1545	287	866	2726	0	0	1	1316	1309	471	474	463	463	11	7344	31123	37102	30505

1548	329	866	2605	0	0	1	1316	1309	471	474	463	463	14	7235	31126	37102	30046

1550	305	866	2618	0	0	1	1316	1309	471	474	463	463	14	7235	31126	37102	29346

1553	343	866	2063	0	0	1	1316	1309	471	474	463	463	19	7061	31165	37309	28408

1556	324	866	1933	0	0	1	1316	1309	471	474	463	463	19	7002	31196	37309	28035

1559	333	866	2013	0	0	1	1316	1309	471	474	463	463	19	7002	31196	37309	28035

1562	387	866	1363	0	0	1	1316	1309	471	474	463	463	0	7682	31261	37684	31785

1565	373	866	1325	0	0	1	1316	1309	471	474	463	463	0	7695	31515	37762	31871

1567	356	866	1402	0	0	1	1316	1309	471	474	463	463	0	7704	31515	37762	31963

1570	362	866	2318	0	0	1	1316	1309	471	474	463	463	0	7711	31534	37762	31986

1573	355	866	2568	0	0	1	1316	1309	471	474	463	463	0	7711	31534	37762	31986

1576	385	866	2612	0	0	1	1316	1309	471	474	463	463	0	7755	31572	37735	32024

1578	419	866	2495	0	0	1	1316	1309	471	474	463	463	17	6811	31576	37735	27229

1581	415	866	2604	0	0	1	1316	1309	471	474	463	463	0	7681	31576	37735	31861

1584	407	866	2616	0	0	1	1316	1309	471	474	463	463	0	7701	31642	37735	31933

1586	402	866	2590	0	0	1	1316	1309	471	474	463	463	0	7701	31642	37735	31933

1589	391	866	2541	0	0	1	1316	1309	471	474	463	463	0	7750	31792	38011	32007

1592	437	866	2249	0	0	1	1316	1309	471	474	463	463	3	7592	31802	38011	31501

1595	461	866	2166	0	0	1	1316	1309	471	474	463	463	3	7592	31802	38011	31501

1597	462	866	2099	0	0	1	1316	1309	471	474	463	463	9	7403	31798	38011	30493

1600	471	866	1972	0	0	1	1316	1309	471	474	463	463	9	7392	31798	38011	30586

1603	461	866	1833	0	0	1	1316	1309	471	474	463	463	0	7707	31799	38011	31969

1606	455	866	1724	0	0	1	1316	1309	471	474	463	463	0	7716	31799	38011	32020

1608	454	866	1631	0	0	1	1316	1309	471	474	463	463	0	7716	31799	38011	32020

1611	463	866	1635	0	0	1	1316	1309	471	474	463	463	0	7716	31799	38011	32008

1614	471	866	1474	0	0	1	1316	1309	471	474	463	463	6	7538	31809	38011	31264

1617	471	866	1468	0	0	1	1316	1309	471	474	463	463	5	7536	31849	37949	31207

1620	470	866	1271	0	0	1	1316	1309	471	474	463	463	5	7553	31834	38004	31276

1622	459	866	1347	0	0	1	1316	1309	471	474	463	463	5	7553	31834	38004	31276

1625	437	866	1645	0	0	1	1316	1309	471	474	463	463	0	7721	31834	38004	32026

1628	434	866	1356	0	0	1	1316	1309	471	474	463	463	0	7728	31834	38004	32053

1631	425	866	1424	0	0	1	1316	1309	471	474	463	463	0	7728	31834	38004	32053

1633	401	866	1416	0	0	1	1316	1309	471	474	463	463	0	7732	31834	38004	32078

1636	380	866	1315	0	0	1	1316	1309	471	474	463	463	0	7739	31834	38004	32095

1639	364	866	1237	0	0	1	1316	1309	471	474	463	463	0	7745	31834	38004	32127

1642	349	866	1135	0	0	1	1316	1309	471	474	463	463	0	7748	31682	37757	32140

1644	339	866	779	0	0	1	1316	1309	471	474	463	463	0	7748	31682	37757	32140

1647	337	866	674	0	0	1	1316	1309	471	474	463	463	0	7743	31666	37757	32134

1650	346	866	948	0	0	1	1316	1309	471	474	463	463	4	7597	31655	37757	31532

1653	348	866	1325	0	0	1	1316	1309	471	474	463	463	4	7597	31655	37757	31532

1655	367	866	1429	0	0	1	1316	1309	471	474	463	463	5	7574	31611	37757	31440

1658	384	866	1801	0	0	1	1316	1309	471	474	463	463	6	7546	31615	37757	31272

1661	417	866	2264	0	0	1	1316	1309	471	474	463	463	8	7448	31605	37757	30821

1663	436	866	2410	0	0	1	1316	1309	471	474	463	463	10	7402	31595	37757	30551

1667	469	866	2365	0	0	1	1316	1309	471	474	463	463	10	7402	31595	37757	30551

1670	414	866	2569	0	0	1	1316	1309	471	474	463	463	12	7351	31567	37593	30124

1672	366	866	2561	0	0	1	1316	1309	471	474	463	463	0	7711	31576	37650	31951

1675	366	866	1522	0	0	1	1316	1309	471	474	463	463	0	7754	31580	37640	32062

1678	359	866	1134	0	0	1	1316	1309	471	474	463	463	0	7732	31580	37640	32087

1680	350	866	1249	0	0	1	1316	1309	471	474	463	463	0	7732	31580	37640	32087

1683	339	866	2820	0	0	1	1316	1309	471	474	463	463	0	7740	31580	37640	32095

1686	336	866	2957	0	0	1	1316	1309	471	474	463	463	0	7745	31580	37640	32127

1689	332	866	2829	0	0	1	1316	1309	471	474	463	463	0	7745	31580	37640	32127

1691	347	866	2180	0	0	1	1316	1309	471	474	463	463	0	7753	31567	37640	32145

1694	383	866	1702	0	0	1	1316	1309	471	474	463	463	0	7745	31580	37640	32150

1697	371	866	976	0	0	1	1316	1309	471	474	463	463	9	7443	31580	37640	30757

1699	358	866	1754	0	0	1	1316	1309	471	474	463	463	0	7734	31568	37640	32078

1702	346	866	2911	0	0	1	1316	1309	471	474	463	463	0	7734	31568	37640	32078

1705	351	866	3001	0	0	1	1316	1309	471	474	463	463	0	7748	31568	37640	32144

1708	369	866	2983	0	0	1	1316	1309	471	474	463	463	1	7683	31528	37640	31925

1710	416	866	1982	0	0	1	1316	1309	471	474	463	463	9	7402	31511	37640	30587

1713	421	866	1648	0	0	1	1316	1309	471	474	463	463	11	7413	31520	37640	30654

1716	409	866	1659	0	0	1	1316	1309	471	474	463	463	11	7413	31520	37640	30654

1719	406	866	1740	0	0	1	1316	1309	471	474	463	463	0	7760	31501	37569	32082

1722	377	866	1731	0	0	1	1316	1309	471	474	463	463	0	7739	31505	37623	32100

1725	350	866	1598	0	0	1	1316	1309	471	474	463	463	0	7779	31503	37603	32100

1727	322	866	1514	0	0	1	1316	1309	471	474	463	463	0	7751	31503	37603	32144

1730	306	866	1517	0	0	1	1316	1309	471	474	463	463	0	7751	31503	37603	32149

1733	287	866	1783	0	0	1	1316	1309	471	474	463	463	0	7758	31503	37603	32177

1736	258	866	2272	0	0	1	1316	1309	471	474	463	463	0	7759	31497	37603	32191

1738	246	866	2823	0	0	1	1316	1309	471	474	463	463	0	7759	31497	37603	32191

1741	221	866	3086	0	0	1	1316	1309	471	474	463	463	0	7763	31497	37603	32209

1744	197	866	3394	0	0	1	1316	1309	471	474	463	463	0	7778	31466	37497	32211

1747	185	866	3894	0	0	1	1316	1309	471	474	463	463	0	7769	31399	37426	32224

1749	182	866	4095	0	0	1	1316	1309	471	474	463	463	0	7770	31391	37426	32253

1752	178	866	4095	0	0	1	1316	1309	471	474	463	463	0	7770	31391	37426	32253

1755	171	866	4095	0	0	1	1316	1309	471	474	463	463	0	7772	31391	37426	32249

1757	163	866	4095	0	0	1	1316	1309	471	474	463	463	0	7774	31391	37426	32261

1760	153	866	4095	0	0	1	1316	1309	471	474	463	463	0	7774	31391	37426	32261

1763	165	866	3978	0	0	1	1316	1309	471	474	463	463	0	7766	31391	37426	32214

1765	173	866	3768	0	0	1	1316	1309	471	474	463	463	1	7715	31357	37426	32030

1768	186	866	3528	0	0	1	1316	1309	471	474	463	463	2	7699	31353	37426	31978

1772	191	866	2886	0	0	1	1316	1309	471	474	463	463	2	7693	31353	37426	31963

1774	206	866	2349	0	0	1	1316	1309	471	474	463	463	2	7693	31353	37426	31963

1777	217	866	2003	0	0	1	1316	1309	471	474	463	463	2	7685	31353	37426	31929

1780	227	866	1966	0	0	1	1316	1309	471	474	463	463	2	7684	31293	37426	31926

1782	232	866	2006	0	0	1	1316	1309	471	474	463	463	2	7703	31293	37426	31988

1785	237	866	2006	0	0	1	1316	1309	471	474	463	463	2	7705	31270	37426	32004

1788	234	866	2031	0	0	1	1316	1309	471	474	463	463	2	7705	31270	37426	32004

1791	234	866	2017	0	0	1	1316	1309	471	474	463	463	0	7741	31241	37426	32131

1793	230	866	2024	0	0	1	1316	1309	471	474	463	463	0	7747	31234	37426	32152

1796	214	866	2019	0	0	1	1316	1309	471	474	463	463	0	7747	31234	37426	32152

1799	201	866	2031	0	0	1	1316	1309	471	474	463	463	0	7789	31172	37174	32293

1802	188	866	2033	0	0	1	1316	1309	471	474	463	463	0	7780	31127	37158	32277

1804	170	866	2031	0	0	1	1316	1309	471	474	463	463	0	7795	31129	37121	32316

1807	163	866	2034	0	0	1	1316	1309	471	474	463	463	0	7786	31129	37121	32314

1810	152	866	2052	0	0	1	1316	1309	471	474	463	463	0	7786	31129	37121	32314

1813	140	866	2059	0	0	1	1316	1309	471	474	463	463	0	7788	31129	37121	32311

1815	130	866	2059	0	0	1	1316	1309	471	474	463	463	0	7789	31105	37121	32320

1818	117	866	2064	0	0	1	1316	1309	471	474	463	463	0	7789	31105	37121	32320

1821	107	866	2099	0	0	1	1316	1309	471	474	463	463	0	7800	31078	37046	32326

1824	93	866	2244	0	0	1	1316	1309	471	474	463	463	0	7793	31078	37046	32332

1827	82	866	2269	0	0	1	1316	1309	471	474	463	463	0	7807	31007	37056	32340

1829	71	866	2242	0	0	1	1316	1309	471	474	463	463	0	7803	31001	37033	32364

1832	61	866	2244	0	0	1	1316	1309	471	474	463	463	0	7803	31001	37033	32364

1835	51	866	2179	0	0	1	1316	1309	471	474	463	463	0	7797	31001	37033	32350

1838	40	866	2187	0	0	1	1316	1309	471	474	463	463	0	7798	31001	37033	32357

1840	15	866	2226	0	0	1	1316	1309	471	474	463	463	0	7800	31001	37033	32373

1843	0	866	2235	0	0	1	1316	1309	471	474	463	463	0	7801	31001	37033	32372

1846	0	866	2243	0	0	1	1316	1309	471	474	463	463	0	7801	31001	37033	32372

1849	0	866	2239	0	0	1	1316	1309	471	474	463	463	0	7804	31001	37033	32369

1851	0	866	2240	0	0	1	1316	1309	471	474	463	463	0	7803	31001	37033	32394

1854	0	866	2241	0	0	1	1316	1309	471	474	463	463	0	7811	31001	37033	32394

1857	0	866	2240	0	0	1	1316	1309	471	474	463	463	0	7819	30949	36919	32396

1859	0	866	2241	0	0	1	1316	1309	471	474	463	463	0	7819	30949	36919	32389

1862	0	866	2242	0	0	1	1316	1309	471	474	463	463	0	7807	30949	36919	32408

1865	0	866	2242	0	0	1	1316	1309	471	474	463	463	0	7808	30938	36919	32406

1868	0	866	2240	0	0	1	1316	1309	471	474	463	463	0	7808	30938	36919	32406

1870	0	866	2237	0	0	1	1316	1309	471	474	463	463	0	7809	30886	36919	32414

1873	0	866	2239	0	0	1	1316	1309	471	474	463	463	0	7810	30886	36919	32422

1876	0	866	2239	0	0	1	1316	1309	471	474	463	463	0	7812	30872	36919	32416

1879	0	866	2239	0	0	1	1316	1309	471	474	463	463	0	7813	30807	36835	32425

1882	0	866	2240	0	0	1	1316	1309	471	474	463	463	0	7813	30807	36835	32425

1885	0	866	2239	0	0	1	1316	1309	471	474	463	463	0	7822	30807	36835	32446

1887	0	866	2239	0	0	1	1316	1309	471	474	463	463	0	7824	30802	36828	32431

1890	0	866	2238	0	0	1	1316	1309	471	474	463	463	0	7816	30782	36828	32425

1893	0	866	2241	0	0	1	1316	1309	471	474	463	463	0	7816	30782	36828	32429

1895	0	866	2239	0	0	1	1316	1309	471	474	463	463	0	7816	30782	36828	32429

1898	0	866	2241	0	0	1	1316	1309	471	474	463	463	0	7819	30777	36828	32444

1901	0	866	2239	0	0	1	1316	1309	471	474	463	463	0	7818	30759	36828	32449

1904	0	866	2239	0	0	1	1316	1309	471	474	463	463	0	7818	30759	36828	32449

1906	0	866	2239	0	0	1	1316	1309	471	474	463	463	0	7819	30716	36764	32453

1909	0	866	2239	0	0	1	1316	1309	471	474	463	463	0	7820	30716	36764	32473

1912	0	866	2240	0	0	1	1316	1309	471	474	463	463	0	7852	30710	36728	32464

1915	0	866	2239	0	0	1	1316	1309	471	474	463	463	0	7830	30712	36757	32464

1917	0	866	2237	0	0	1	1316	1309	471	474	463	463	0	7830	30712	36757	32464

1920	0	866	2238	0	0	1	1316	1309	471	474	463	463	0	7823	30712	36757	32465

1923	0	866	2239	0	0	1	1316	1309	471	474	463	463	0	7823	30712	36757	32476

1926	0	866	2238	0	0	1	1316	1309	471	474	463	463	0	7823	30712	36757	32476

1929	0	866	2240	0	0	1	1316	1309	471	474	463	463	0	7825	30712	36757	32475

1932	0	866	2238	0	0	1	1316	1309	471	474	463	463	0	7825	30712	36757	32475

1934	0	866	2237	0	0	1	1316	1309	471	474	463	463	0	7826	30712	36757	32476

1937	0	866	2242	0	0	1	1316	1309	471	474	463	463	0	7827	30712	36757	32480

1940	0	866	2240	0	0	1	1316	1309	471	474	463	463	0	7827	30712	36757	32480

1942	0	866	2240	0	0	1	1316	1309	471	474	463	463	0	7827	30649	36757	32490

1945	0	866	2241	0	0	1	1316	1309	471	474	463	463	0	7828	30649	36757	32496

1948	0	866	2240	0	0	1	1316	1309	471	474	463	463	0	7841	30626	36661	32497

1951	0	866	2240	0	0	1	1316	1309	471	474	463	463	0	7829	30626	36661	32499

1953	0	866	2242	0	0	1	1316	1309	471	474	463	463	0	7829	30626	36661	32499

1956	0	866	2240	0	0	1	1316	1309	471	474	463	463	0	7831	30626	36661	32495

1959	0	866	2241	0	0	1	1316	1309	471	474	463	463	0	7830	30579	36645	32493

1962	0	866	2237	0	0	1	1316	1309	471	474	463	463	0	7830	30579	36645	32493

1964	0	866	2239	0	0	1	1316	1309	471	474	463	463	0	7832	30579	36645	32520

1967	0	866	2237	0	0	1	1316	1309	471	474	463	463	0	7848	30577	36629	32512

1970	0	866	2239	0	0	1	1316	1309	471	474	463	463	0	7833	30577	36629	32509

1972	0	866	2237	0	0	1	1316	1309	471	474	463	463	0	7833	30577	36629	32499

1975	0	866	2239	0	0	1	1316	1309	471	474	463	463	0	7833	30577	36629	32499

1978	0	866	2240	0	0	1	1316	1309	471	474	463	463	0	7836	30577	36629	32522

1981	0	866	2239	0	0	1	1316	1309	471	474	463	463	0	7834	30577	36629	32525

1984	0	866	2239	0	0	1	1316	1309	471	474	463	463	0	7835	30517	36565	32520

1987	0	866	2237	0	0	1	1316	1309	471	474	463	463	0	7836	30518	36565	32539

1989	0	866	2239	0	0	1	1316	1309	471	474	463	463	0	7836	30518	36565	32539

1992	0	866	2239	0	0	1	1316	1309	471	474	463	463	0	7836	30518	36565	32532

1995	0	866	2239	0	0	1	1316	1309	471	474	463	463	0	7836	30518	36565	32525

1998	0	866	2238	0	0	1	1316	1309	471	474	463	463	0	7836	30518	36565	32525

2000	0	866	2239	0	0	1	1316	1309	471	474	463	463	0	7837	30515	36565	32533

2003	0	866	2237	0	0	1	1316	1309	471	474	463	463	0	7838	30515	36565	32524

2006	0	866	2238	0	0	1	1316	1309	471	474	463	463	0	7839	30515	36565	32536

2009	0	866	2237	0	0	1	1316	1309	471	474	463	463	0	7839	30515	36565	32535

2011	0	866	2238	0	0	1	1316	1309	471	474	463	463	0	7839	30515	36565	32535

2014	0	866	2238	0	0	1	1316	1309	471	474	463	463	0	7839	30490	36565	32552

2017	0	866	2239	0	0	1	1316	1309	471	474	463	463	0	7851	30485	36543	32546

2019	0	866	2240	0	0	1	1316	1309	471	474	463	463	0	7840	30485	36543	32550

2022	0	866	2238	0	0	1	1316	1309	471	474	463	463	0	7841	30470	36543	32559

2025	0	866	2239	0	0	1	1316	1309	471	474	463	463	0	7841	30470	36543	32559

2028	0	866	2237	0	0	1	1316	1309	471	474	463	463	0	7842	30470	36543	32548

2030	0	866	2237	0	0	1	1316	1309	471	474	463	463	0	7842	30467	36543	32540

2034	0	866	2239	0	0	1	1316	1309	471	474	463	463	0	7842	30467	36543	32540

2036	0	866	2239	0	0	1	1316	1309	471	474	463	463	0	7846	30459	36543	32551

2039	0	866	2239	0	0	1	1316	1309	471	474	463	463	0	7858	30412	36476	32545

2042	0	866	2238	0	0	1	1316	1309	471	474	463	463	0	7843	30412	36476	32568

2045	0	866	2235	0	0	1	1316	1309	471	474	463	463	0	7843	30412	36476	32562

2047	0	866	2239	0	0	1	1316	1309	471	474	463	463	0	7843	30412	36476	32562

2050	0	866	2237	0	0	1	1316	1309	471	474	463	463	0	7845	30412	36476	32570

2053	0	866	2239	0	0	1	1316	1309	471	474	463	463	0	7845	30412	36476	32570

2056	0	866	2239	0	0	1	1316	1309	471	474	463	463	0	7845	30412	36476	32566

2058	0	866	2240	0	0	1	1316	1309	471	474	463	463	0	7845	30406	36476	32572

2061	0	866	2241	0	0	1	1316	1309	471	474	463	463	0	7845	30406	36476	32572

2064	0	866	2241	0	0	1	1316	1309	471	474	463	463	0	7847	30373	36425	32575

2066	0	866	2239	0	0	1	1316	1309	471	474	463	463	0	7847	30373	36425	32588

2069	0	866	2242	0	0	1	1316	1309	471	474	463	463	0	7847	30373	36425	32588

2072	0	866	2241	0	0	1	1316	1309	471	474	463	463	0	7849	30361	36425	32580

2075	0	866	2239	0	0	1	1316	1309	471	474	463	463	0	7849	30358	36425	32581

2077	0	866	2240	0	0	1	1316	1309	471	474	463	463	0	7851	30352	36425	32578

2080	0	866	2237	0	0	1	1316	1309	471	474	463	463	0	7848	30352	36425	32581

2083	0	866	2239	0	0	1	1316	1309	471	474	463	463	0	7848	30352	36425	32581

2086	0	866	2240	0	0	1	1316	1309	471	474	463	463	0	7848	30352	36425	32584

2089	0	866	2239	0	0	1	1316	1309	471	474	463	463	0	7848	30352	36425	32583

2092	0	866	2237	0	0	1	1316	1309	471	474	463	463	0	7849	30352	36425	32594

2094	0	866	2238	0	0	1	1316	1309	471	474	463	463	0	7860	30336	36381	32591

2097	0	866	2239	0	0	1	1316	1309	471	474	463	463	0	7860	30336	36381	32591

2100	0	866	2237	0	0	1	1316	1309	471	474	463	463	0	7850	30336	36381	32586

2102	0	866	2240	0	0	1	1316	1309	471	474	463	463	0	7850	30336	36381	32597

2105	0	866	2240	0	0	1	1316	1309	471	474	463	463	0	7850	30336	36381	32597

2108	0	866	2240	0	0	1	1316	1309	471	474	463	463	0	7854	30336	36381	32596

2111	0	866	2241	0	0	1	1316	1309	471	474	463	463	0	7853	30336	36381	32604

2113	0	866	2241	0	0	1	1316	1309	471	474	463	463	0	7891	30330	36384	32601

2116	0	866	2238	0	0	1	1316	1309	471	474	463	463	0	7852	30297	36355	32601

2119	0	866	2240	0	0	1	1316	1309	471	474	463	463	0	7852	30297	36355	32601

2122	0	866	2242	0	0	1	1316	1309	471	474	463	463	0	7854	30297	36355	32614

2124	0	866	2240	0	0	1	1316	1309	471	474	463	463	0	7854	30280	36355	32598

2127	0	866	2241	0	0	1	1316	1309	471	474	463	463	0	7854	30280	36355	32598

2130	0	866	2243	0	0	1	1316	1309	471	474	463	463	0	7892	30266	36318	32601

2133	0	866	2240	0	0	1	1316	1309	471	474	463	463	0	7853	30272	36318	32599

2135	0	866	2241	0	0	1	1316	1309	471	474	463	463	0	7886	30277	36330	32611

2138	0	866	2239	0	0	1	1316	1309	471	474	463	463	0	7854	30280	36330	32604

2141	0	866	2240	0	0	1	1316	1309	471	474	463	463	0	7854	30280	36330	32604

2144	0	866	2242	0	0	1	1316	1309	471	474	463	463	0	7854	30249	36314	32629

2147	0	866	2241	0	0	1	1316	1309	471	474	463	463	0	7855	30249	36314	32624

2149	0	866	2238	0	0	1	1316	1309	471	474	463	463	0	7855	30255	36314	32621

2152	0	866	2240	0	0	1	1316	1309	471	474	463	463	0	7856	30255	36314	32611

2155	0	866	2240	0	0	1	1316	1309	471	474	463	463	0	7856	30255	36314	32611

2158	0	866	2240	0	0	1	1316	1309	471	474	463	463	0	7857	30255	36314	32627

2160	0	866	2240	0	0	1	1316	1309	471	474	463	463	0	7855	30255	36314	32626

2163	0	866	2241	0	0	1	1316	1309	471	474	463	463	0	7855	30255	36314	32626

2166	0	866	2239	0	0	1	1316	1309	471	474	463	463	0	7856	30255	36314	32615

2169	0	866	2238	0	0	1	1316	1309	471	474	463	463	0	7856	30255	36314	32621

2171	0	866	2238	0	0	1	1316	1309	471	474	463	463	0	7858	30243	36314	32617

2174	0	866	2241	0	0	1	1316	1309	471	474	463	463	0	7870	30247	36318	32626

2177	0	866	2239	0	0	1	1316	1309	471	474	463	463	0	7870	30247	36318	32626

2179	0	866	2242	0	0	1	1316	1309	471	474	463	463	0	7857	30244	36318	32632

2182	0	866	2240	0	0	1	1316	1309	471	474	463	463	0	7857	30229	36318	32625

2185	0	866	2240	0	0	1	1316	1309	471	474	463	463	0	7858	30229	36318	32625

2188	0	866	2238	0	0	1	1316	1309	471	474	463	463	0	7859	30229	36318	32625

2191	0	866	2237	0	0	1	1316	1309	471	474	463	463	0	7859	30229	36318	32625

2194	0	866	2240	0	0	1	1316	1309	471	474	463	463	0	7886	30228	36295	32629

2196	0	866	2240	0	0	1	1316	1309	471	474	463	463	0	7858	30200	36295	32642

2199	0	866	2240	0	0	1	1316	1309	471	474	463	463	0	7859	30202	36295	32652

2202	0	866	2239	0	0	1	1316	1309	471	474	463	463	0	7859	30204	36295	32650

2204	0	866	2238	0	0	1	1316	1309	471	474	463	463	0	7859	30204	36295	32650

2207	0	866	2238	0	0	1	1316	1309	471	474	463	463	0	7860	30204	36295	32636

2210	0	866	2239	0	0	1	1316	1309	471	474	463	463	0	7861	30204	36295	32638

2213	0	866	2239	0	0	1	1316	1309	471	474	463	463	0	7861	30204	36295	32638

2215	0	866	2240	0	0	1	1316	1309	471	474	463	463	0	7860	30196	36295	32645

2218	0	866	2237	0	0	1	1316	1309	471	474	463	463	0	7860	30196	36295	32652

2221	0	866	2237	0	0	1	1316	1309	471	474	463	463	0	7860	30178	36267	32636

2224	0	866	2236	0	0	1	1316	1309	471	474	463	463	0	7861	30177	36267	32652

2226	0	866	2238	0	0	1	1316	1309	471	474	463	463	0	7861	30177	36267	32652

2229	0	866	2241	0	0	1	1316	1309	471	474	463	463	0	7861	30181	36267	32660

2232	0	866	2241	0	0	1	1316	1309	471	474	463	463	0	7861	30180	36267	32666

2235	0	866	2239	0	0	1	1316	1309	471	474	463	463	0	7861	30180	36267	32666

2237	0	866	2238	0	0	1	1316	1309	471	474	463	463	0	7874	30169	36248	32664

2240	0	866	2238	0	0	1	1316	1309	471	474	463	463	0	7862	30169	36248	32651

2243	0	866	2240	0	0	1	1316	1309	471	474	463	463	0	7862	30169	36248	32652

2246	0	866	2238	0	0	1	1316	1309	471	474	463	463	0	7862	30169	36248	32653

2249	0	866	2237	0	0	1	1316	1309	471	474	463	463	0	7862	30169	36248	32653

2252	0	866	2236	0	0	1	1316	1309	471	474	463	463	0	7862	30169	36248	32650

2254	0	866	2241	0	0	1	1316	1309	471	474	463	463	0	7863	30168	36248	32638

